top.vcd
$version Generated by VerilatedVcd $end
$date Mon Nov 21 19:03:14 2022 $end
$timescale 1ps $end

 $scope module TOP $end
  $var wire 32 z a0 [31:0] $end
  $var wire  1 x clk $end
  $var wire  1 y rst $end
  $scope module top $end
   $var wire  1 { ALUctrl $end
   $var wire  1 ? ALUsrc $end
   $var wire  1 A EQ $end
   $var wire 32 E ImmOp [31:0] $end
   $var wire  1 ? ImmSrc $end
   $var wire 32 G PC [31:0] $end
   $var wire  1 @ PCsrc $end
   $var wire  1 ? RegWrite $end
   $var wire 32 z a0 [31:0] $end
   $var wire  1 x clk $end
   $var wire 32 F instr [31:0] $end
   $var wire  5 D rd [4:0] $end
   $var wire  5 B rs1 [4:0] $end
   $var wire  5 C rs2 [4:0] $end
   $var wire  1 y rst $end
   $scope module aluTop $end
    $var wire  1 { ALUctrl $end
    $var wire 32 I ALUop1 [31:0] $end
    $var wire 32 J ALUop2 [31:0] $end
    $var wire 32 H ALUout [31:0] $end
    $var wire  1 ? ALUsrc $end
    $var wire 32 | DATA_WIDTH [31:0] $end
    $var wire  1 A EQ $end
    $var wire 32 E ImmOp [31:0] $end
    $var wire  1 ? RegWrite $end
    $var wire 32 z a0 [31:0] $end
    $var wire  1 x clk $end
    $var wire  5 D rd [4:0] $end
    $var wire 32 K regOp2 [31:0] $end
    $var wire  5 B rs1 [4:0] $end
    $var wire  5 C rs2 [4:0] $end
    $scope module ALU $end
     $var wire  3 } ALUctrl [2:0] $end
     $var wire 32 I ALUop1 [31:0] $end
     $var wire 32 J ALUop2 [31:0] $end
     $var wire 32 | DATA_WIDTH [31:0] $end
     $var wire  1 A EQ $end
     $var wire 32 H SUM [31:0] $end
    $upscope $end
    $scope module ALUMux $end
     $var wire 32 J ALUop2 [31:0] $end
     $var wire  1 ? ALUsrc $end
     $var wire 32 | DATA_WIDTH [31:0] $end
     $var wire 32 E ImmOp [31:0] $end
     $var wire 32 K regOp2 [31:0] $end
    $upscope $end
    $scope module RegFile $end
     $var wire 32 ~ ADDRESS_WIDTH [31:0] $end
     $var wire 32 | DATA_WIDTH [31:0] $end
     $var wire 32 I RD1 [31:0] $end
     $var wire 32 K RD2 [31:0] $end
     $var wire 32 H WD3 [31:0] $end
     $var wire  1 ? WE3 $end
     $var wire 32 z a0 [31:0] $end
     $var wire  1 x clk $end
     $var wire  5 D rd [4:0] $end
     $var wire 32 L reg_array[0] [31:0] $end
     $var wire 32 V reg_array[10] [31:0] $end
     $var wire 32 W reg_array[11] [31:0] $end
     $var wire 32 X reg_array[12] [31:0] $end
     $var wire 32 Y reg_array[13] [31:0] $end
     $var wire 32 Z reg_array[14] [31:0] $end
     $var wire 32 [ reg_array[15] [31:0] $end
     $var wire 32 \ reg_array[16] [31:0] $end
     $var wire 32 ] reg_array[17] [31:0] $end
     $var wire 32 ^ reg_array[18] [31:0] $end
     $var wire 32 _ reg_array[19] [31:0] $end
     $var wire 32 M reg_array[1] [31:0] $end
     $var wire 32 ` reg_array[20] [31:0] $end
     $var wire 32 a reg_array[21] [31:0] $end
     $var wire 32 b reg_array[22] [31:0] $end
     $var wire 32 c reg_array[23] [31:0] $end
     $var wire 32 d reg_array[24] [31:0] $end
     $var wire 32 e reg_array[25] [31:0] $end
     $var wire 32 f reg_array[26] [31:0] $end
     $var wire 32 g reg_array[27] [31:0] $end
     $var wire 32 h reg_array[28] [31:0] $end
     $var wire 32 i reg_array[29] [31:0] $end
     $var wire 32 N reg_array[2] [31:0] $end
     $var wire 32 j reg_array[30] [31:0] $end
     $var wire 32 k reg_array[31] [31:0] $end
     $var wire 32 O reg_array[3] [31:0] $end
     $var wire 32 P reg_array[4] [31:0] $end
     $var wire 32 Q reg_array[5] [31:0] $end
     $var wire 32 R reg_array[6] [31:0] $end
     $var wire 32 S reg_array[7] [31:0] $end
     $var wire 32 T reg_array[8] [31:0] $end
     $var wire 32 U reg_array[9] [31:0] $end
     $var wire  5 B rs1 [4:0] $end
     $var wire  5 C rs2 [4:0] $end
    $upscope $end
   $upscope $end
   $scope module top_PC $end
    $var wire 32 | ADDRESS_WIDTH [31:0] $end
    $var wire 32 E ImmOp [31:0] $end
    $var wire 32 G PC [31:0] $end
    $var wire  1 @ PCsrc $end
    $var wire 32 n branch_PC [31:0] $end
    $var wire  1 x clk $end
    $var wire 32 l inc_PC [31:0] $end
    $var wire 32 m next_PC [31:0] $end
    $var wire  1 y rst $end
    $scope module PC_Reg $end
     $var wire 32 | DATA_LENGTH [31:0] $end
     $var wire 32 G PC [31:0] $end
     $var wire  1 x clk $end
     $var wire 32 m next_PC [31:0] $end
     $var wire  1 y rst $end
    $upscope $end
    $scope module add_inc $end
     $var wire 32 | DATA_LENGTH [31:0] $end
     $var wire 32 !! N [31:0] $end
     $var wire 32 G in [31:0] $end
     $var wire 32 l out [31:0] $end
    $upscope $end
    $scope module add_op $end
     $var wire 32 | DATA_LENGTH [31:0] $end
     $var wire 32 o N [31:0] $end
     $var wire 32 G in [31:0] $end
     $var wire 32 n out [31:0] $end
    $upscope $end
    $scope module mux $end
     $var wire 32 | WIDTH [31:0] $end
     $var wire 32 l d_0 [31:0] $end
     $var wire 32 n d_1 [31:0] $end
     $var wire 32 m dout [31:0] $end
     $var wire  1 @ s $end
    $upscope $end
   $upscope $end
   $scope module top_cme $end
    $var wire  1 { ALUctrl $end
    $var wire  1 ? ALUsrc $end
    $var wire  1 A EQ $end
    $var wire 32 E ImmOp [31:0] $end
    $var wire  1 ? ImmSrc $end
    $var wire 32 G PC [31:0] $end
    $var wire  1 @ PCsrc $end
    $var wire  1 ? RegWrite $end
    $var wire 32 | WIDTH [31:0] $end
    $var wire 32 F instr [31:0] $end
    $scope module ControlUnit $end
     $var wire  1 { ALUctrl $end
     $var wire  1 ? ALUsrc $end
     $var wire  1 A EQ $end
     $var wire  1 ? ImmSrc $end
     $var wire  1 @ PCsrc $end
     $var wire  1 ? RegWrite $end
     $var wire  3 p funct3 [14:12] $end
     $var wire 32 r instr [31:0] $end
     $var wire  7 q opcode [6:0] $end
    $upscope $end
    $scope module InstructionMemory $end
     $var wire 32 G A [31:0] $end
     $var wire 32 | ADDRESS_WIDTH [31:0] $end
     $var wire 32 "! DATA_WIDTH [31:0] $end
     $var wire 32 | INSTRUCTION_WIDTH [31:0] $end
     $var wire 32 F RD [31:0] $end
     $var wire  8 s byte1 [7:0] $end
     $var wire  8 t byte2 [7:0] $end
     $var wire  8 u byte3 [7:0] $end
     $var wire  8 v byte4 [7:0] $end
     $var wire  8 # rom_array[0] [7:0] $end
     $var wire  8 - rom_array[10] [7:0] $end
     $var wire  8 . rom_array[11] [7:0] $end
     $var wire  8 / rom_array[12] [7:0] $end
     $var wire  8 0 rom_array[13] [7:0] $end
     $var wire  8 1 rom_array[14] [7:0] $end
     $var wire  8 2 rom_array[15] [7:0] $end
     $var wire  8 3 rom_array[16] [7:0] $end
     $var wire  8 4 rom_array[17] [7:0] $end
     $var wire  8 5 rom_array[18] [7:0] $end
     $var wire  8 6 rom_array[19] [7:0] $end
     $var wire  8 $ rom_array[1] [7:0] $end
     $var wire  8 7 rom_array[20] [7:0] $end
     $var wire  8 8 rom_array[21] [7:0] $end
     $var wire  8 9 rom_array[22] [7:0] $end
     $var wire  8 : rom_array[23] [7:0] $end
     $var wire  8 ; rom_array[24] [7:0] $end
     $var wire  8 < rom_array[25] [7:0] $end
     $var wire  8 = rom_array[26] [7:0] $end
     $var wire  8 > rom_array[27] [7:0] $end
     $var wire  8 % rom_array[2] [7:0] $end
     $var wire  8 & rom_array[3] [7:0] $end
     $var wire  8 ' rom_array[4] [7:0] $end
     $var wire  8 ( rom_array[5] [7:0] $end
     $var wire  8 ) rom_array[6] [7:0] $end
     $var wire  8 * rom_array[7] [7:0] $end
     $var wire  8 + rom_array[8] [7:0] $end
     $var wire  8 , rom_array[9] [7:0] $end
    $upscope $end
    $scope module SignExtend $end
     $var wire 32 E ImmOp [31:0] $end
     $var wire  1 ? ImmSrc $end
     $var wire 32 | data_width [31:0] $end
     $var wire 12 w imm [11:0] $end
     $var wire 32 #! imm_width [31:0] $end
     $var wire 32 F instruction [31:0] $end
    $upscope $end
   $upscope $end
  $upscope $end
 $upscope $end
$enddefinitions $end


#0
b00000000 #
b00000000 $
b00000000 %
b00000000 &
b00000000 '
b00000000 (
b00000000 )
b00000000 *
b00000000 +
b00000000 ,
b00000000 -
b00000000 .
b00000000 /
b00000000 0
b00000000 1
b00000000 2
b00000000 3
b00000000 4
b00000000 5
b00000000 6
b00000000 7
b00000000 8
b00000000 9
b00000000 :
b00000000 ;
b00000000 <
b00000000 =
b00000000 >
0?
0@
1A
b00000 B
b00000 C
b00000 D
b00000000000000000000000000000000 E
b00000000000000000000000000000000 F
b00000000000000000000000000000000 G
b00000000000000000000000000000000 H
b00000000000000000000000000000000 I
b00000000000000000000000000000000 J
b00000000000000000000000000000000 K
b00000000000000000000000000000000 L
b00000000000000000000000000000000 M
b00000000000000000000000000000000 N
b00000000000000000000000000000000 O
b00000000000000000000000000000000 P
b00000000000000000000000000000000 Q
b00000000000000000000000000000000 R
b00000000000000000000000000000000 S
b00000000000000000000000000000000 T
b00000000000000000000000000000000 U
b00000000000000000000000000000000 V
b00000000000000000000000000000000 W
b00000000000000000000000000000000 X
b00000000000000000000000000000000 Y
b00000000000000000000000000000000 Z
b00000000000000000000000000000000 [
b00000000000000000000000000000000 \
b00000000000000000000000000000000 ]
b00000000000000000000000000000000 ^
b00000000000000000000000000000000 _
b00000000000000000000000000000000 `
b00000000000000000000000000000000 a
b00000000000000000000000000000000 b
b00000000000000000000000000000000 c
b00000000000000000000000000000000 d
b00000000000000000000000000000000 e
b00000000000000000000000000000000 f
b00000000000000000000000000000000 g
b00000000000000000000000000000000 h
b00000000000000000000000000000000 i
b00000000000000000000000000000000 j
b00000000000000000000000000000000 k
b00000000000000000000000000000100 l
b00000000000000000000000000000100 m
b00000000000000000000000000000000 n
b00000000000000000000000000000000 o
b000 p
b0000000 q
b00000000000000000000000000000000 r
b00000000 s
b00000000 t
b00000000 u
b00000000 v
b000000000000 w
1x
1y
b00000000000000000000000000000000 z
0{
b00000000000000000000000000100000 |
b000 }
b00000000000000000000000000000101 ~
b00000000000000000000000000000100 !!
b00000000000000000000000000001000 "!
b00000000000000000000000000001100 #!
#1
b00001111 #
b11110000 $
b00000011 %
b00010011 &
b00000101 )
b00010011 *
b00000101 -
b10010011 .
b00000101 0
b10000101 1
b00010011 2
b00010101 4
b10000101 5
b10010011 6
b11111110 7
b01100101 8
b10011000 9
b11100011 :
b11111110 ;
b00000011 <
b00010000 =
b11100011 >
1?
0A
b11111 C
b00110 D
b00000000000000000000000011111111 E
b00001111111100000000001100010011 F
b00000000000000000000000011111111 H
b00000000000000000000000011111111 J
b00000000000000000000000111111110 n
b00000000000000000000000111111110 o
b0010011 q
b00000000000000000000000000000001 r
b00001111 s
b11110000 t
b00000011 u
b00010011 v
b000011111111 w
0x
#2
b00000000000000000000000011111111 R
1x
#3
0x
#4
1x
#5
0x
#6
1x
0y
#7
0x
#8
1A
b00000 C
b01010 D
b00000000000000000000000000000000 E
b00000000000000000000010100010011 F
b00000000000000000000000000000100 G
b00000000000000000000000000000000 H
b00000000000000000000000000000000 J
b00000000000000000000000000001000 l
b00000000000000000000000000001000 m
b00000000000000000000000000000100 n
b00000000000000000000000000000000 o
b00000000 s
b00000000 t
b00000101 u
b000000000000 w
1x
#9
0x
#10
b01011 D
b00000000000000000000010110010011 F
b00000000000000000000000000001000 G
b00000000000000000000000000001100 l
b00000000000000000000000000001100 m
b00000000000000000000000000001000 n
b10010011 v
1x
#11
0x
#12
b01011 B
b01010 D
b00000000000001011000010100010011 F
b00000000000000000000000000001100 G
b00000000000000000000000000010000 l
b00000000000000000000000000010000 m
b00000000000000000000000000001100 n
b00000101 t
b10000101 u
b00010011 v
1x
#13
0x
#14
0A
b00001 C
b01011 D
b00000000000000000000000000000001 E
b00000000000101011000010110010011 F
b00000000000000000000000000010000 G
b00000000000000000000000000000001 H
b00000000000000000000000000000001 J
b00000000000000000000000000010100 l
b00000000000000000000000000010100 m
b00000000000000000000000000010010 n
b00000000000000000000000000000010 o
b00010101 t
b10010011 v
b000000000001 w
1x
#15
0x
#16
0?
1A
b00110 C
b10001 D
b11111111111111111111111111111000 E
b11111110011001011001100011100011 F
b00000000000000000000000000010100 G
b00000000000000000000000000000000 H
b00000000000000000000000000000000 J
b00000000000000000000000000000001 W
b00000000000000000000000000011000 l
b00000000000000000000000000011000 m
b00000000000000000000000000000100 n
b11111111111111111111111111110000 o
b001 p
b1100011 q
b00000000000000000000000000000010 r
b11111110 s
b01100101 t
b10011000 u
b11100011 v
b111111111000 w
1x
#17
0x
#18
1@
0A
b00110 B
b00000 C
b00001 D
b11111111111111111111111111110000 E
b11111110000000110001000011100011 F
b00000000000000000000000000011000 G
b00000000000000000000000100000000 H
b00000000000000000000000000000001 I
b00000000000000000000000011111111 J
b00000000000000000000000011111111 K
b00000000000000000000000000011100 l
b11111111111111111111111111111000 m
b11111111111111111111111111111000 n
b11111111111111111111111111100000 o
b00000011 t
b00010000 u
b111111110000 w
1x
#19
0x
#20
b11111111111111111111111111111000 G
b00000000000000000000000011111111 H
b00000000000000000000000011111111 I
b00000000000000000000000000000000 J
b00000000000000000000000000000000 K
b11111111111111111111111111111100 l
b11111111111111111111111111011000 m
b11111111111111111111111111011000 n
1x
#21
0x
#22
b11111111111111111111111111011000 G
b11111111111111111111111111011100 l
b11111111111111111111111110111000 m
b11111111111111111111111110111000 n
1x
#23
0x
#24
b11111111111111111111111110111000 G
b11111111111111111111111110111100 l
b11111111111111111111111110011000 m
b11111111111111111111111110011000 n
1x
#25
0x
#26
b11111111111111111111111110011000 G
b11111111111111111111111110011100 l
b11111111111111111111111101111000 m
b11111111111111111111111101111000 n
1x
#27
0x
#28
b11111111111111111111111101111000 G
b11111111111111111111111101111100 l
b11111111111111111111111101011000 m
b11111111111111111111111101011000 n
1x
#29
0x
#30
b11111111111111111111111101011000 G
b11111111111111111111111101011100 l
b11111111111111111111111100111000 m
b11111111111111111111111100111000 n
1x
#31
0x
#32
b11111111111111111111111100111000 G
b11111111111111111111111100111100 l
b11111111111111111111111100011000 m
b11111111111111111111111100011000 n
1x
#33
0x
#34
b11111111111111111111111100011000 G
b11111111111111111111111100011100 l
b11111111111111111111111011111000 m
b11111111111111111111111011111000 n
1x
#35
0x
#36
b11111111111111111111111011111000 G
b11111111111111111111111011111100 l
b11111111111111111111111011011000 m
b11111111111111111111111011011000 n
1x
#37
0x
#38
b11111111111111111111111011011000 G
b11111111111111111111111011011100 l
b11111111111111111111111010111000 m
b11111111111111111111111010111000 n
1x
#39
0x
#40
b11111111111111111111111010111000 G
b11111111111111111111111010111100 l
b11111111111111111111111010011000 m
b11111111111111111111111010011000 n
1x
#41
0x
#42
b11111111111111111111111010011000 G
b11111111111111111111111010011100 l
b11111111111111111111111001111000 m
b11111111111111111111111001111000 n
1x
#43
0x
#44
b11111111111111111111111001111000 G
b11111111111111111111111001111100 l
b11111111111111111111111001011000 m
b11111111111111111111111001011000 n
1x
#45
0x
#46
b11111111111111111111111001011000 G
b11111111111111111111111001011100 l
b11111111111111111111111000111000 m
b11111111111111111111111000111000 n
1x
#47
0x
#48
b11111111111111111111111000111000 G
b11111111111111111111111000111100 l
b11111111111111111111111000011000 m
b11111111111111111111111000011000 n
1x
#49
0x
#50
b11111111111111111111111000011000 G
b11111111111111111111111000011100 l
b11111111111111111111110111111000 m
b11111111111111111111110111111000 n
1x
#51
0x
#52
b11111111111111111111110111111000 G
b11111111111111111111110111111100 l
b11111111111111111111110111011000 m
b11111111111111111111110111011000 n
1x
#53
0x
#54
b11111111111111111111110111011000 G
b11111111111111111111110111011100 l
b11111111111111111111110110111000 m
b11111111111111111111110110111000 n
1x
#55
0x
#56
b11111111111111111111110110111000 G
b11111111111111111111110110111100 l
b11111111111111111111110110011000 m
b11111111111111111111110110011000 n
1x
#57
0x
#58
b11111111111111111111110110011000 G
b11111111111111111111110110011100 l
b11111111111111111111110101111000 m
b11111111111111111111110101111000 n
1x
#59
0x
#60
b11111111111111111111110101111000 G
b11111111111111111111110101111100 l
b11111111111111111111110101011000 m
b11111111111111111111110101011000 n
1x
#61
0x
#62
b11111111111111111111110101011000 G
b11111111111111111111110101011100 l
b11111111111111111111110100111000 m
b11111111111111111111110100111000 n
1x
#63
0x
#64
b11111111111111111111110100111000 G
b11111111111111111111110100111100 l
b11111111111111111111110100011000 m
b11111111111111111111110100011000 n
1x
#65
0x
#66
b11111111111111111111110100011000 G
b11111111111111111111110100011100 l
b11111111111111111111110011111000 m
b11111111111111111111110011111000 n
1x
#67
0x
#68
b11111111111111111111110011111000 G
b11111111111111111111110011111100 l
b11111111111111111111110011011000 m
b11111111111111111111110011011000 n
1x
#69
0x
#70
b11111111111111111111110011011000 G
b11111111111111111111110011011100 l
b11111111111111111111110010111000 m
b11111111111111111111110010111000 n
1x
#71
0x
#72
b11111111111111111111110010111000 G
b11111111111111111111110010111100 l
b11111111111111111111110010011000 m
b11111111111111111111110010011000 n
1x
#73
0x
#74
b11111111111111111111110010011000 G
b11111111111111111111110010011100 l
b11111111111111111111110001111000 m
b11111111111111111111110001111000 n
1x
#75
0x
#76
b11111111111111111111110001111000 G
b11111111111111111111110001111100 l
b11111111111111111111110001011000 m
b11111111111111111111110001011000 n
1x
#77
0x
#78
b11111111111111111111110001011000 G
b11111111111111111111110001011100 l
b11111111111111111111110000111000 m
b11111111111111111111110000111000 n
1x
#79
0x
#80
b11111111111111111111110000111000 G
b11111111111111111111110000111100 l
b11111111111111111111110000011000 m
b11111111111111111111110000011000 n
1x
#81
0x
#82
b11111111111111111111110000011000 G
b11111111111111111111110000011100 l
b11111111111111111111101111111000 m
b11111111111111111111101111111000 n
1x
#83
0x
#84
b11111111111111111111101111111000 G
b11111111111111111111101111111100 l
b11111111111111111111101111011000 m
b11111111111111111111101111011000 n
1x
#85
0x
#86
b11111111111111111111101111011000 G
b11111111111111111111101111011100 l
b11111111111111111111101110111000 m
b11111111111111111111101110111000 n
1x
#87
0x
#88
b11111111111111111111101110111000 G
b11111111111111111111101110111100 l
b11111111111111111111101110011000 m
b11111111111111111111101110011000 n
1x
#89
0x
#90
b11111111111111111111101110011000 G
b11111111111111111111101110011100 l
b11111111111111111111101101111000 m
b11111111111111111111101101111000 n
1x
#91
0x
#92
b11111111111111111111101101111000 G
b11111111111111111111101101111100 l
b11111111111111111111101101011000 m
b11111111111111111111101101011000 n
1x
#93
0x
#94
b11111111111111111111101101011000 G
b11111111111111111111101101011100 l
b11111111111111111111101100111000 m
b11111111111111111111101100111000 n
1x
#95
0x
#96
b11111111111111111111101100111000 G
b11111111111111111111101100111100 l
b11111111111111111111101100011000 m
b11111111111111111111101100011000 n
1x
#97
0x
#98
b11111111111111111111101100011000 G
b11111111111111111111101100011100 l
b11111111111111111111101011111000 m
b11111111111111111111101011111000 n
1x
#99
0x
#100
b11111111111111111111101011111000 G
b11111111111111111111101011111100 l
b11111111111111111111101011011000 m
b11111111111111111111101011011000 n
1x
#101
0x
#102
b11111111111111111111101011011000 G
b11111111111111111111101011011100 l
b11111111111111111111101010111000 m
b11111111111111111111101010111000 n
1x
#103
0x
#104
b11111111111111111111101010111000 G
b11111111111111111111101010111100 l
b11111111111111111111101010011000 m
b11111111111111111111101010011000 n
1x
#105
0x
#106
b11111111111111111111101010011000 G
b11111111111111111111101010011100 l
b11111111111111111111101001111000 m
b11111111111111111111101001111000 n
1x
#107
0x
#108
b11111111111111111111101001111000 G
b11111111111111111111101001111100 l
b11111111111111111111101001011000 m
b11111111111111111111101001011000 n
1x
#109
0x
#110
b11111111111111111111101001011000 G
b11111111111111111111101001011100 l
b11111111111111111111101000111000 m
b11111111111111111111101000111000 n
1x
#111
0x
#112
b11111111111111111111101000111000 G
b11111111111111111111101000111100 l
b11111111111111111111101000011000 m
b11111111111111111111101000011000 n
1x
#113
0x
#114
b11111111111111111111101000011000 G
b11111111111111111111101000011100 l
b11111111111111111111100111111000 m
b11111111111111111111100111111000 n
1x
#115
0x
#116
b11111111111111111111100111111000 G
b11111111111111111111100111111100 l
b11111111111111111111100111011000 m
b11111111111111111111100111011000 n
1x
#117
0x
#118
b11111111111111111111100111011000 G
b11111111111111111111100111011100 l
b11111111111111111111100110111000 m
b11111111111111111111100110111000 n
1x
#119
0x
#120
b11111111111111111111100110111000 G
b11111111111111111111100110111100 l
b11111111111111111111100110011000 m
b11111111111111111111100110011000 n
1x
#121
0x
#122
b11111111111111111111100110011000 G
b11111111111111111111100110011100 l
b11111111111111111111100101111000 m
b11111111111111111111100101111000 n
1x
#123
0x
#124
b11111111111111111111100101111000 G
b11111111111111111111100101111100 l
b11111111111111111111100101011000 m
b11111111111111111111100101011000 n
1x
#125
0x
#126
b11111111111111111111100101011000 G
b11111111111111111111100101011100 l
b11111111111111111111100100111000 m
b11111111111111111111100100111000 n
1x
#127
0x
#128
b11111111111111111111100100111000 G
b11111111111111111111100100111100 l
b11111111111111111111100100011000 m
b11111111111111111111100100011000 n
1x
#129
0x
#130
b11111111111111111111100100011000 G
b11111111111111111111100100011100 l
b11111111111111111111100011111000 m
b11111111111111111111100011111000 n
1x
#131
0x
#132
b11111111111111111111100011111000 G
b11111111111111111111100011111100 l
b11111111111111111111100011011000 m
b11111111111111111111100011011000 n
1x
#133
0x
#134
b11111111111111111111100011011000 G
b11111111111111111111100011011100 l
b11111111111111111111100010111000 m
b11111111111111111111100010111000 n
1x
#135
0x
#136
b11111111111111111111100010111000 G
b11111111111111111111100010111100 l
b11111111111111111111100010011000 m
b11111111111111111111100010011000 n
1x
#137
0x
#138
b11111111111111111111100010011000 G
b11111111111111111111100010011100 l
b11111111111111111111100001111000 m
b11111111111111111111100001111000 n
1x
#139
0x
#140
b11111111111111111111100001111000 G
b11111111111111111111100001111100 l
b11111111111111111111100001011000 m
b11111111111111111111100001011000 n
1x
#141
0x
#142
b11111111111111111111100001011000 G
b11111111111111111111100001011100 l
b11111111111111111111100000111000 m
b11111111111111111111100000111000 n
1x
#143
0x
#144
b11111111111111111111100000111000 G
b11111111111111111111100000111100 l
b11111111111111111111100000011000 m
b11111111111111111111100000011000 n
1x
#145
0x
#146
b11111111111111111111100000011000 G
b11111111111111111111100000011100 l
b11111111111111111111011111111000 m
b11111111111111111111011111111000 n
1x
#147
0x
#148
b11111111111111111111011111111000 G
b11111111111111111111011111111100 l
b11111111111111111111011111011000 m
b11111111111111111111011111011000 n
1x
#149
0x
#150
b11111111111111111111011111011000 G
b11111111111111111111011111011100 l
b11111111111111111111011110111000 m
b11111111111111111111011110111000 n
1x
#151
0x
#152
b11111111111111111111011110111000 G
b11111111111111111111011110111100 l
b11111111111111111111011110011000 m
b11111111111111111111011110011000 n
1x
#153
0x
#154
b11111111111111111111011110011000 G
b11111111111111111111011110011100 l
b11111111111111111111011101111000 m
b11111111111111111111011101111000 n
1x
#155
0x
#156
b11111111111111111111011101111000 G
b11111111111111111111011101111100 l
b11111111111111111111011101011000 m
b11111111111111111111011101011000 n
1x
#157
0x
#158
b11111111111111111111011101011000 G
b11111111111111111111011101011100 l
b11111111111111111111011100111000 m
b11111111111111111111011100111000 n
1x
#159
0x
#160
b11111111111111111111011100111000 G
b11111111111111111111011100111100 l
b11111111111111111111011100011000 m
b11111111111111111111011100011000 n
1x
#161
0x
#162
b11111111111111111111011100011000 G
b11111111111111111111011100011100 l
b11111111111111111111011011111000 m
b11111111111111111111011011111000 n
1x
#163
0x
#164
b11111111111111111111011011111000 G
b11111111111111111111011011111100 l
b11111111111111111111011011011000 m
b11111111111111111111011011011000 n
1x
#165
0x
#166
b11111111111111111111011011011000 G
b11111111111111111111011011011100 l
b11111111111111111111011010111000 m
b11111111111111111111011010111000 n
1x
#167
0x
#168
b11111111111111111111011010111000 G
b11111111111111111111011010111100 l
b11111111111111111111011010011000 m
b11111111111111111111011010011000 n
1x
#169
0x
#170
b11111111111111111111011010011000 G
b11111111111111111111011010011100 l
b11111111111111111111011001111000 m
b11111111111111111111011001111000 n
1x
#171
0x
#172
b11111111111111111111011001111000 G
b11111111111111111111011001111100 l
b11111111111111111111011001011000 m
b11111111111111111111011001011000 n
1x
#173
0x
#174
b11111111111111111111011001011000 G
b11111111111111111111011001011100 l
b11111111111111111111011000111000 m
b11111111111111111111011000111000 n
1x
#175
0x
#176
b11111111111111111111011000111000 G
b11111111111111111111011000111100 l
b11111111111111111111011000011000 m
b11111111111111111111011000011000 n
1x
#177
0x
#178
b11111111111111111111011000011000 G
b11111111111111111111011000011100 l
b11111111111111111111010111111000 m
b11111111111111111111010111111000 n
1x
#179
0x
#180
b11111111111111111111010111111000 G
b11111111111111111111010111111100 l
b11111111111111111111010111011000 m
b11111111111111111111010111011000 n
1x
#181
0x
#182
b11111111111111111111010111011000 G
b11111111111111111111010111011100 l
b11111111111111111111010110111000 m
b11111111111111111111010110111000 n
1x
#183
0x
#184
b11111111111111111111010110111000 G
b11111111111111111111010110111100 l
b11111111111111111111010110011000 m
b11111111111111111111010110011000 n
1x
#185
0x
#186
b11111111111111111111010110011000 G
b11111111111111111111010110011100 l
b11111111111111111111010101111000 m
b11111111111111111111010101111000 n
1x
#187
0x
#188
b11111111111111111111010101111000 G
b11111111111111111111010101111100 l
b11111111111111111111010101011000 m
b11111111111111111111010101011000 n
1x
#189
0x
#190
b11111111111111111111010101011000 G
b11111111111111111111010101011100 l
b11111111111111111111010100111000 m
b11111111111111111111010100111000 n
1x
#191
0x
#192
b11111111111111111111010100111000 G
b11111111111111111111010100111100 l
b11111111111111111111010100011000 m
b11111111111111111111010100011000 n
1x
#193
0x
#194
b11111111111111111111010100011000 G
b11111111111111111111010100011100 l
b11111111111111111111010011111000 m
b11111111111111111111010011111000 n
1x
#195
0x
#196
b11111111111111111111010011111000 G
b11111111111111111111010011111100 l
b11111111111111111111010011011000 m
b11111111111111111111010011011000 n
1x
#197
0x
#198
b11111111111111111111010011011000 G
b11111111111111111111010011011100 l
b11111111111111111111010010111000 m
b11111111111111111111010010111000 n
1x
