top.vcd
$version Generated by VerilatedVcd $end
$date Fri Nov 25 15:20:55 2022 $end
$timescale 1ps $end

 $scope module TOP $end
  $var wire 32 ~ a0 [31:0] $end
  $var wire  1 | clk $end
  $var wire  1 } rst $end
  $scope module top $end
   $var wire  3 !! ALUctrl [2:0] $end
   $var wire  1 ? ALUsrc $end
   $var wire  1 F EQ $end
   $var wire 32 G ImmOp [31:0] $end
   $var wire  1 B ImmSrc $end
   $var wire 32 I PC [31:0] $end
   $var wire  1 @ PCsrc $end
   $var wire  1 ? RegWrite $end
   $var wire  1 A RegWriteSrc $end
   $var wire 32 ~ a0 [31:0] $end
   $var wire  1 | clk $end
   $var wire 32 H instr [31:0] $end
   $var wire  5 E rd [4:0] $end
   $var wire  5 C rs1 [4:0] $end
   $var wire  5 D rs2 [4:0] $end
   $var wire  1 } rst $end
   $scope module aluTop $end
    $var wire  3 !! ALUctrl [2:0] $end
    $var wire 32 K ALUop1 [31:0] $end
    $var wire 32 L ALUop2 [31:0] $end
    $var wire 32 J ALUout [31:0] $end
    $var wire  1 ? ALUsrc $end
    $var wire 32 "! DATA_WIDTH [31:0] $end
    $var wire  1 F EQ $end
    $var wire 32 G ImmOp [31:0] $end
    $var wire  1 ? RegWrite $end
    $var wire  1 A RegWriteSrc $end
    $var wire 32 ~ a0 [31:0] $end
    $var wire  1 | clk $end
    $var wire 32 O memOut [31:0] $end
    $var wire  5 E rd [4:0] $end
    $var wire 32 M regOp2 [31:0] $end
    $var wire 32 N regWriteData [31:0] $end
    $var wire  5 C rs1 [4:0] $end
    $var wire  5 D rs2 [4:0] $end
    $scope module ALU $end
     $var wire  3 !! ALUctrl [2:0] $end
     $var wire 32 K ALUop1 [31:0] $end
     $var wire 32 L ALUop2 [31:0] $end
     $var wire 32 "! DATA_WIDTH [31:0] $end
     $var wire  1 F EQ $end
     $var wire 32 J SUM [31:0] $end
    $upscope $end
    $scope module RegFile $end
     $var wire 32 #! ADDRESS_WIDTH [31:0] $end
     $var wire 32 "! DATA_WIDTH [31:0] $end
     $var wire 32 K RD1 [31:0] $end
     $var wire 32 M RD2 [31:0] $end
     $var wire 32 N WD3 [31:0] $end
     $var wire  1 ? WE3 $end
     $var wire 32 ~ a0 [31:0] $end
     $var wire  1 | clk $end
     $var wire  5 E rd [4:0] $end
     $var wire 32 P reg_array[0] [31:0] $end
     $var wire 32 Z reg_array[10] [31:0] $end
     $var wire 32 [ reg_array[11] [31:0] $end
     $var wire 32 \ reg_array[12] [31:0] $end
     $var wire 32 ] reg_array[13] [31:0] $end
     $var wire 32 ^ reg_array[14] [31:0] $end
     $var wire 32 _ reg_array[15] [31:0] $end
     $var wire 32 ` reg_array[16] [31:0] $end
     $var wire 32 a reg_array[17] [31:0] $end
     $var wire 32 b reg_array[18] [31:0] $end
     $var wire 32 c reg_array[19] [31:0] $end
     $var wire 32 Q reg_array[1] [31:0] $end
     $var wire 32 d reg_array[20] [31:0] $end
     $var wire 32 e reg_array[21] [31:0] $end
     $var wire 32 f reg_array[22] [31:0] $end
     $var wire 32 g reg_array[23] [31:0] $end
     $var wire 32 h reg_array[24] [31:0] $end
     $var wire 32 i reg_array[25] [31:0] $end
     $var wire 32 j reg_array[26] [31:0] $end
     $var wire 32 k reg_array[27] [31:0] $end
     $var wire 32 l reg_array[28] [31:0] $end
     $var wire 32 m reg_array[29] [31:0] $end
     $var wire 32 R reg_array[2] [31:0] $end
     $var wire 32 n reg_array[30] [31:0] $end
     $var wire 32 o reg_array[31] [31:0] $end
     $var wire 32 S reg_array[3] [31:0] $end
     $var wire 32 T reg_array[4] [31:0] $end
     $var wire 32 U reg_array[5] [31:0] $end
     $var wire 32 V reg_array[6] [31:0] $end
     $var wire 32 W reg_array[7] [31:0] $end
     $var wire 32 X reg_array[8] [31:0] $end
     $var wire 32 Y reg_array[9] [31:0] $end
     $var wire  5 C rs1 [4:0] $end
     $var wire  5 D rs2 [4:0] $end
    $upscope $end
    $scope module ram $end
     $var wire 32 "! ADDRESS_LENGTH [31:0] $end
     $var wire 32 J a [31:0] $end
     $var wire  1 | clk $end
     $var wire 32 O rd [31:0] $end
     $var wire 32 %! wd [31:0] $end
     $var wire  1 $! we $end
    $upscope $end
   $upscope $end
   $scope module top_PC $end
    $var wire 32 "! ADDRESS_WIDTH [31:0] $end
    $var wire 32 G ImmOp [31:0] $end
    $var wire 32 I PC [31:0] $end
    $var wire  1 @ PCsrc $end
    $var wire 32 r branch_PC [31:0] $end
    $var wire  1 | clk $end
    $var wire 32 p inc_PC [31:0] $end
    $var wire 32 q next_PC [31:0] $end
    $var wire  1 } rst $end
    $scope module PC_Reg $end
     $var wire 32 "! DATA_LENGTH [31:0] $end
     $var wire 32 I PC [31:0] $end
     $var wire  1 | clk $end
     $var wire 32 q next_PC [31:0] $end
     $var wire  1 } rst $end
    $upscope $end
    $scope module add_inc $end
     $var wire 32 "! DATA_LENGTH [31:0] $end
     $var wire 32 &! N [31:0] $end
     $var wire 32 I in [31:0] $end
     $var wire 32 p out [31:0] $end
    $upscope $end
    $scope module add_op $end
     $var wire 32 "! DATA_LENGTH [31:0] $end
     $var wire 32 s N [31:0] $end
     $var wire 32 I in [31:0] $end
     $var wire 32 r out [31:0] $end
    $upscope $end
    $scope module mux $end
     $var wire 32 "! WIDTH [31:0] $end
     $var wire 32 p d_0 [31:0] $end
     $var wire 32 r d_1 [31:0] $end
     $var wire 32 q dout [31:0] $end
     $var wire  1 @ s $end
    $upscope $end
   $upscope $end
   $scope module top_cme $end
    $var wire  3 !! ALUctrl [2:0] $end
    $var wire  1 ? ALUsrc $end
    $var wire  1 F EQ $end
    $var wire 32 G ImmOp [31:0] $end
    $var wire  1 B ImmSrc $end
    $var wire 32 I PC [31:0] $end
    $var wire  1 @ PCsrc $end
    $var wire  1 ? RegWrite $end
    $var wire  1 A RegWriteSrc $end
    $var wire 32 "! WIDTH [31:0] $end
    $var wire 32 H instr [31:0] $end
    $scope module ControlUnit $end
     $var wire  3 !! ALUctrl [2:0] $end
     $var wire  1 ? ALUsrc $end
     $var wire  1 F EQ $end
     $var wire  1 B ImmSrc $end
     $var wire  1 @ PCsrc $end
     $var wire  1 ? RegWrite $end
     $var wire  1 A RegWriteSrc $end
     $var wire  3 t funct3 [14:12] $end
     $var wire 32 v instr [31:0] $end
     $var wire  7 u opcode [6:0] $end
    $upscope $end
    $scope module InstructionMemory $end
     $var wire 32 I A [31:0] $end
     $var wire 32 "! ADDRESS_WIDTH [31:0] $end
     $var wire 32 '! DATA_WIDTH [31:0] $end
     $var wire 32 "! INSTRUCTION_WIDTH [31:0] $end
     $var wire 32 H RD [31:0] $end
     $var wire  8 w byte1 [7:0] $end
     $var wire  8 x byte2 [7:0] $end
     $var wire  8 y byte3 [7:0] $end
     $var wire  8 z byte4 [7:0] $end
     $var wire  8 # rom_array[0] [7:0] $end
     $var wire  8 - rom_array[10] [7:0] $end
     $var wire  8 . rom_array[11] [7:0] $end
     $var wire  8 / rom_array[12] [7:0] $end
     $var wire  8 0 rom_array[13] [7:0] $end
     $var wire  8 1 rom_array[14] [7:0] $end
     $var wire  8 2 rom_array[15] [7:0] $end
     $var wire  8 3 rom_array[16] [7:0] $end
     $var wire  8 4 rom_array[17] [7:0] $end
     $var wire  8 5 rom_array[18] [7:0] $end
     $var wire  8 6 rom_array[19] [7:0] $end
     $var wire  8 $ rom_array[1] [7:0] $end
     $var wire  8 7 rom_array[20] [7:0] $end
     $var wire  8 8 rom_array[21] [7:0] $end
     $var wire  8 9 rom_array[22] [7:0] $end
     $var wire  8 : rom_array[23] [7:0] $end
     $var wire  8 ; rom_array[24] [7:0] $end
     $var wire  8 < rom_array[25] [7:0] $end
     $var wire  8 = rom_array[26] [7:0] $end
     $var wire  8 > rom_array[27] [7:0] $end
     $var wire  8 % rom_array[2] [7:0] $end
     $var wire  8 & rom_array[3] [7:0] $end
     $var wire  8 ' rom_array[4] [7:0] $end
     $var wire  8 ( rom_array[5] [7:0] $end
     $var wire  8 ) rom_array[6] [7:0] $end
     $var wire  8 * rom_array[7] [7:0] $end
     $var wire  8 + rom_array[8] [7:0] $end
     $var wire  8 , rom_array[9] [7:0] $end
    $upscope $end
    $scope module SignExtend $end
     $var wire 32 G ImmOp [31:0] $end
     $var wire  1 B ImmSrc $end
     $var wire 32 "! data_width [31:0] $end
     $var wire 12 { imm [11:0] $end
     $var wire 32 (! imm_width [31:0] $end
     $var wire 32 H instruction [31:0] $end
    $upscope $end
   $upscope $end
  $upscope $end
 $upscope $end
$enddefinitions $end


#0
b00000000 #
b00000000 $
b00000000 %
b00000000 &
b00000000 '
b00000000 (
b00000000 )
b00000000 *
b00000000 +
b00000000 ,
b00000000 -
b00000000 .
b00000000 /
b00000000 0
b00000000 1
b00000000 2
b00000000 3
b00000000 4
b00000000 5
b00000000 6
b00000000 7
b00000000 8
b00000000 9
b00000000 :
b00000000 ;
b00000000 <
b00000000 =
b00000000 >
0?
0@
0A
0B
b00000 C
b00000 D
b00000 E
1F
b00000000000000000000000000000000 G
b00000000000000000000000000000000 H
b00000000000000000000000000000000 I
b00000000000000000000000000000000 J
b00000000000000000000000000000000 K
b00000000000000000000000000000000 L
b00000000000000000000000000000000 M
b00000000000000000000000000000000 N
b00000000000000000000000000000000 O
b00000000000000000000000000000000 P
b00000000000000000000000000000000 Q
b00000000000000000000000000000000 R
b00000000000000000000000000000000 S
b00000000000000000000000000000000 T
b00000000000000000000000000000000 U
b00000000000000000000000000000000 V
b00000000000000000000000000000000 W
b00000000000000000000000000000000 X
b00000000000000000000000000000000 Y
b00000000000000000000000000000000 Z
b00000000000000000000000000000000 [
b00000000000000000000000000000000 \
b00000000000000000000000000000000 ]
b00000000000000000000000000000000 ^
b00000000000000000000000000000000 _
b00000000000000000000000000000000 `
b00000000000000000000000000000000 a
b00000000000000000000000000000000 b
b00000000000000000000000000000000 c
b00000000000000000000000000000000 d
b00000000000000000000000000000000 e
b00000000000000000000000000000000 f
b00000000000000000000000000000000 g
b00000000000000000000000000000000 h
b00000000000000000000000000000000 i
b00000000000000000000000000000000 j
b00000000000000000000000000000000 k
b00000000000000000000000000000000 l
b00000000000000000000000000000000 m
b00000000000000000000000000000000 n
b00000000000000000000000000000000 o
b00000000000000000000000000000100 p
b00000000000000000000000000000100 q
b00000000000000000000000000000000 r
b00000000000000000000000000000000 s
b000 t
b0000000 u
b00000000000000000000000000000000 v
b00000000 w
b00000000 x
b00000000 y
b00000000 z
b000000000000 {
1|
1}
b00000000000000000000000000000000 ~
b000 !!
b00000000000000000000000000100000 "!
b00000000000000000000000000000101 #!
0$!
b00000000000000000000000000000000 %!
b00000000000000000000000000000100 &!
b00000000000000000000000000001000 '!
b00000000000000000000000000001100 (!
#1
b00001111 #
b11110000 $
b00000011 %
b00010011 &
b00000101 )
b00010011 *
b00000101 -
b10010011 .
b00000101 0
b10100101 1
b00000011 2
b00010101 4
b10000101 5
b10010011 6
b11111110 7
b01100101 8
b10011100 9
b11100011 :
b11111110 ;
b00000011 <
b00011000 =
b11100011 >
1?
b11111 D
b00110 E
0F
b00000000000000000000000011111111 G
b00001111111100000000001100010011 H
b00000000000000000000000011111111 J
b00000000000000000000000011111111 L
b00000000000000000000000011111111 N
b11111111111111111111111100000000 O
b00000000000000000000000111111110 r
b00000000000000000000000111111110 s
b0010011 u
b00000000000000000000000000000001 v
b00001111 w
b11110000 x
b00000011 y
b00010011 z
b000011111111 {
0|
#2
b00000000000000000000000011111111 V
1|
#3
0|
#4
1|
#5
0|
#6
1|
0}
#7
0|
#8
b00000 D
b01010 E
1F
b00000000000000000000000000000000 G
b00000000000000000000010100010011 H
b00000000000000000000000000000100 I
b00000000000000000000000000000000 J
b00000000000000000000000000000000 L
b00000000000000000000000000000000 N
b00000000000000000000000000000000 O
b00000000000000000000000000001000 p
b00000000000000000000000000001000 q
b00000000000000000000000000000100 r
b00000000000000000000000000000000 s
b00000000 w
b00000000 x
b00000101 y
b000000000000 {
1|
#9
0|
#10
b01011 E
b00000000000000000000010110010011 H
b00000000000000000000000000001000 I
b00000000000000000000000000001100 p
b00000000000000000000000000001100 q
b00000000000000000000000000001000 r
b10010011 z
1|
#11
0|
#12
1A
b01011 C
b01010 E
b00000000000001011010010100000011 H
b00000000000000000000000000001100 I
b00000000000000000000000000010000 p
b00000000000000000000000000010000 q
b00000000000000000000000000001100 r
b010 t
b0000011 u
b00000000000000000000000000000011 v
b00000101 x
b10100101 y
b00000011 z
1|
#13
0|
#14
0A
b00001 D
b01011 E
0F
b00000000000000000000000000000001 G
b00000000000101011000010110010011 H
b00000000000000000000000000010000 I
b00000000000000000000000000000001 J
b00000000000000000000000000000001 L
b00000000000000000000000000000001 N
b00000000000000000000000001001111 O
b00000000000000000000000000010100 p
b00000000000000000000000000010100 q
b00000000000000000000000000010010 r
b00000000000000000000000000000010 s
b000 t
b0010011 u
b00000000000000000000000000000001 v
b00010101 x
b10000101 y
b10010011 z
b000000000001 {
1|
#15
0|
#16
0?
1@
1B
b00110 D
b11001 E
b11111111111111111111111111111100 G
b11111110011001011001110011100011 H
b00000000000000000000000000010100 I
b00000000000000000000000100000000 J
b00000000000000000000000000000001 K
b00000000000000000000000011111111 L
b00000000000000000000000011111111 M
b00000000000000000000000100000000 N
b11111111111111111111111100001101 O
b00000000000000000000000000000001 [
b00000000000000000000000000011000 p
b00000000000000000000000000001100 q
b00000000000000000000000000001100 r
b11111111111111111111111111111000 s
b001 t
b1100011 u
b00000000000000000000000000000010 v
b11111110 w
b01100101 x
b10011100 y
b11100011 z
b111111111100 {
1|
#17
0|
#18
1?
0@
1A
0B
b00000 D
b01010 E
b00000000000000000000000000000000 G
b00000000000001011010010100000011 H
b00000000000000000000000000001100 I
b00000000000000000000000000000001 J
b00000000000000000000000000000000 L
b00000000000000000000000000000000 M
b00000000000000000000000001001111 N
b00000000000000000000000001001111 O
b00000000000000000000000000010000 p
b00000000000000000000000000010000 q
b00000000000000000000000000000000 s
b010 t
b0000011 u
b00000000000000000000000000000011 v
b00000000 w
b00000101 x
b10100101 y
b00000011 z
b000000000000 {
1|
#19
0|
#20
0A
b00001 D
b01011 E
1F
b00000000000000000000000000000001 G
b00000000000101011000010110010011 H
b00000000000000000000000000010000 I
b00000000000000000000000000000010 J
b00000000000000000000000000000001 L
b00000000000000000000000000000010 N
b00000000000000000000000010010110 O
b00000000000000000000000001001111 Z
b00000000000000000000000000010100 p
b00000000000000000000000000010100 q
b00000000000000000000000000010010 r
b00000000000000000000000000000010 s
b000 t
b0010011 u
b00000000000000000000000000000001 v
b00010101 x
b10000101 y
b10010011 z
b000000000001 {
1|
b00000000000000000000000001001111 ~
#21
0|
#22
0?
1@
1B
b00110 D
b11001 E
0F
b11111111111111111111111111111100 G
b11111110011001011001110011100011 H
b00000000000000000000000000010100 I
b00000000000000000000000100000001 J
b00000000000000000000000000000010 K
b00000000000000000000000011111111 L
b00000000000000000000000011111111 M
b00000000000000000000000100000001 N
b11111111111111111111111100110001 O
b00000000000000000000000000000010 [
b00000000000000000000000000011000 p
b00000000000000000000000000001100 q
b00000000000000000000000000001100 r
b11111111111111111111111111111000 s
b001 t
b1100011 u
b00000000000000000000000000000010 v
b11111110 w
b01100101 x
b10011100 y
b11100011 z
b111111111100 {
1|
#23
0|
#24
1?
0@
1A
0B
b00000 D
b01010 E
b00000000000000000000000000000000 G
b00000000000001011010010100000011 H
b00000000000000000000000000001100 I
b00000000000000000000000000000010 J
b00000000000000000000000000000000 L
b00000000000000000000000000000000 M
b00000000000000000000000010010110 N
b00000000000000000000000010010110 O
b00000000000000000000000000010000 p
b00000000000000000000000000010000 q
b00000000000000000000000000000000 s
b010 t
b0000011 u
b00000000000000000000000000000011 v
b00000000 w
b00000101 x
b10100101 y
b00000011 z
b000000000000 {
1|
#25
0|
#26
0A
b00001 D
b01011 E
b00000000000000000000000000000001 G
b00000000000101011000010110010011 H
b00000000000000000000000000010000 I
b00000000000000000000000000000011 J
b00000000000000000000000000000001 L
b00000000000000000000000000000011 N
b00000000000000000000000011001111 O
b00000000000000000000000010010110 Z
b00000000000000000000000000010100 p
b00000000000000000000000000010100 q
b00000000000000000000000000010010 r
b00000000000000000000000000000010 s
b000 t
b0010011 u
b00000000000000000000000000000001 v
b00010101 x
b10000101 y
b10010011 z
b000000000001 {
1|
b00000000000000000000000010010110 ~
#27
0|
#28
0?
1@
1B
b00110 D
b11001 E
b11111111111111111111111111111100 G
b11111110011001011001110011100011 H
b00000000000000000000000000010100 I
b00000000000000000000000100000010 J
b00000000000000000000000000000011 K
b00000000000000000000000011111111 L
b00000000000000000000000011111111 M
b00000000000000000000000100000010 N
b11111111111111111111111101101010 O
b00000000000000000000000000000011 [
b00000000000000000000000000011000 p
b00000000000000000000000000001100 q
b00000000000000000000000000001100 r
b11111111111111111111111111111000 s
b001 t
b1100011 u
b00000000000000000000000000000010 v
b11111110 w
b01100101 x
b10011100 y
b11100011 z
b111111111100 {
1|
#29
0|
#30
1?
0@
1A
0B
b00000 D
b01010 E
b00000000000000000000000000000000 G
b00000000000001011010010100000011 H
b00000000000000000000000000001100 I
b00000000000000000000000000000011 J
b00000000000000000000000000000000 L
b00000000000000000000000000000000 M
b00000000000000000000000011001111 N
b00000000000000000000000011001111 O
b00000000000000000000000000010000 p
b00000000000000000000000000010000 q
b00000000000000000000000000000000 s
b010 t
b0000011 u
b00000000000000000000000000000011 v
b00000000 w
b00000101 x
b10100101 y
b00000011 z
b000000000000 {
1|
#31
0|
#32
0A
b00001 D
b01011 E
b00000000000000000000000000000001 G
b00000000000101011000010110010011 H
b00000000000000000000000000010000 I
b00000000000000000000000000000100 J
b00000000000000000000000000000001 L
b00000000000000000000000000000100 N
b00000000000000000000000011110011 O
b00000000000000000000000011001111 Z
b00000000000000000000000000010100 p
b00000000000000000000000000010100 q
b00000000000000000000000000010010 r
b00000000000000000000000000000010 s
b000 t
b0010011 u
b00000000000000000000000000000001 v
b00010101 x
b10000101 y
b10010011 z
b000000000001 {
1|
b00000000000000000000000011001111 ~
#33
0|
#34
0?
1@
1B
b00110 D
b11001 E
b11111111111111111111111111111100 G
b11111110011001011001110011100011 H
b00000000000000000000000000010100 I
b00000000000000000000000100000011 J
b00000000000000000000000000000100 K
b00000000000000000000000011111111 L
b00000000000000000000000011111111 M
b00000000000000000000000100000011 N
b11111111111111111111111110110001 O
b00000000000000000000000000000100 [
b00000000000000000000000000011000 p
b00000000000000000000000000001100 q
b00000000000000000000000000001100 r
b11111111111111111111111111111000 s
b001 t
b1100011 u
b00000000000000000000000000000010 v
b11111110 w
b01100101 x
b10011100 y
b11100011 z
b111111111100 {
1|
#35
0|
#36
1?
0@
1A
0B
b00000 D
b01010 E
b00000000000000000000000000000000 G
b00000000000001011010010100000011 H
b00000000000000000000000000001100 I
b00000000000000000000000000000100 J
b00000000000000000000000000000000 L
b00000000000000000000000000000000 M
b00000000000000000000000011110011 N
b00000000000000000000000011110011 O
b00000000000000000000000000010000 p
b00000000000000000000000000010000 q
b00000000000000000000000000000000 s
b010 t
b0000011 u
b00000000000000000000000000000011 v
b00000000 w
b00000101 x
b10100101 y
b00000011 z
b000000000000 {
1|
#37
0|
#38
0A
b00001 D
b01011 E
b00000000000000000000000000000001 G
b00000000000101011000010110010011 H
b00000000000000000000000000010000 I
b00000000000000000000000000000101 J
b00000000000000000000000000000001 L
b00000000000000000000000000000101 N
b00000000000000000000000100000000 O
b00000000000000000000000011110011 Z
b00000000000000000000000000010100 p
b00000000000000000000000000010100 q
b00000000000000000000000000010010 r
b00000000000000000000000000000010 s
b000 t
b0010011 u
b00000000000000000000000000000001 v
b00010101 x
b10000101 y
b10010011 z
b000000000001 {
1|
b00000000000000000000000011110011 ~
#39
0|
#40
0?
1@
1B
b00110 D
b11001 E
b11111111111111111111111111111100 G
b11111110011001011001110011100011 H
b00000000000000000000000000010100 I
b00000000000000000000000100000100 J
b00000000000000000000000000000101 K
b00000000000000000000000011111111 L
b00000000000000000000000011111111 M
b00000000000000000000000100000100 N
b00000000000000000000000000000000 O
b00000000000000000000000000000101 [
b00000000000000000000000000011000 p
b00000000000000000000000000001100 q
b00000000000000000000000000001100 r
b11111111111111111111111111111000 s
b001 t
b1100011 u
b00000000000000000000000000000010 v
b11111110 w
b01100101 x
b10011100 y
b11100011 z
b111111111100 {
1|
#41
0|
#42
1?
0@
1A
0B
b00000 D
b01010 E
b00000000000000000000000000000000 G
b00000000000001011010010100000011 H
b00000000000000000000000000001100 I
b00000000000000000000000000000101 J
b00000000000000000000000000000000 L
b00000000000000000000000000000000 M
b00000000000000000000000100000000 N
b00000000000000000000000100000000 O
b00000000000000000000000000010000 p
b00000000000000000000000000010000 q
b00000000000000000000000000000000 s
b010 t
b0000011 u
b00000000000000000000000000000011 v
b00000000 w
b00000101 x
b10100101 y
b00000011 z
b000000000000 {
1|
#43
0|
#44
0A
b00001 D
b01011 E
b00000000000000000000000000000001 G
b00000000000101011000010110010011 H
b00000000000000000000000000010000 I
b00000000000000000000000000000110 J
b00000000000000000000000000000001 L
b00000000000000000000000000000110 N
b00000000000000000000000011110011 O
b00000000000000000000000100000000 Z
b00000000000000000000000000010100 p
b00000000000000000000000000010100 q
b00000000000000000000000000010010 r
b00000000000000000000000000000010 s
b000 t
b0010011 u
b00000000000000000000000000000001 v
b00010101 x
b10000101 y
b10010011 z
b000000000001 {
1|
b00000000000000000000000100000000 ~
#45
0|
#46
0?
1@
1B
b00110 D
b11001 E
b11111111111111111111111111111100 G
b11111110011001011001110011100011 H
b00000000000000000000000000010100 I
b00000000000000000000000100000101 J
b00000000000000000000000000000110 K
b00000000000000000000000011111111 L
b00000000000000000000000011111111 M
b00000000000000000000000100000101 N
b00000000000000000000000001001111 O
b00000000000000000000000000000110 [
b00000000000000000000000000011000 p
b00000000000000000000000000001100 q
b00000000000000000000000000001100 r
b11111111111111111111111111111000 s
b001 t
b1100011 u
b00000000000000000000000000000010 v
b11111110 w
b01100101 x
b10011100 y
b11100011 z
b111111111100 {
1|
#47
0|
#48
1?
0@
1A
0B
b00000 D
b01010 E
b00000000000000000000000000000000 G
b00000000000001011010010100000011 H
b00000000000000000000000000001100 I
b00000000000000000000000000000110 J
b00000000000000000000000000000000 L
b00000000000000000000000000000000 M
b00000000000000000000000011110011 N
b00000000000000000000000011110011 O
b00000000000000000000000000010000 p
b00000000000000000000000000010000 q
b00000000000000000000000000000000 s
b010 t
b0000011 u
b00000000000000000000000000000011 v
b00000000 w
b00000101 x
b10100101 y
b00000011 z
b000000000000 {
1|
#49
0|
#50
0A
b00001 D
b01011 E
b00000000000000000000000000000001 G
b00000000000101011000010110010011 H
b00000000000000000000000000010000 I
b00000000000000000000000000000111 J
b00000000000000000000000000000001 L
b00000000000000000000000000000111 N
b00000000000000000000000011001111 O
b00000000000000000000000011110011 Z
b00000000000000000000000000010100 p
b00000000000000000000000000010100 q
b00000000000000000000000000010010 r
b00000000000000000000000000000010 s
b000 t
b0010011 u
b00000000000000000000000000000001 v
b00010101 x
b10000101 y
b10010011 z
b000000000001 {
1|
b00000000000000000000000011110011 ~
#51
0|
#52
0?
1@
1B
b00110 D
b11001 E
b11111111111111111111111111111100 G
b11111110011001011001110011100011 H
b00000000000000000000000000010100 I
b00000000000000000000000100000110 J
b00000000000000000000000000000111 K
b00000000000000000000000011111111 L
b00000000000000000000000011111111 M
b00000000000000000000000100000110 N
b00000000000000000000000010010110 O
b00000000000000000000000000000111 [
b00000000000000000000000000011000 p
b00000000000000000000000000001100 q
b00000000000000000000000000001100 r
b11111111111111111111111111111000 s
b001 t
b1100011 u
b00000000000000000000000000000010 v
b11111110 w
b01100101 x
b10011100 y
b11100011 z
b111111111100 {
1|
#53
0|
#54
1?
0@
1A
0B
b00000 D
b01010 E
b00000000000000000000000000000000 G
b00000000000001011010010100000011 H
b00000000000000000000000000001100 I
b00000000000000000000000000000111 J
b00000000000000000000000000000000 L
b00000000000000000000000000000000 M
b00000000000000000000000011001111 N
b00000000000000000000000011001111 O
b00000000000000000000000000010000 p
b00000000000000000000000000010000 q
b00000000000000000000000000000000 s
b010 t
b0000011 u
b00000000000000000000000000000011 v
b00000000 w
b00000101 x
b10100101 y
b00000011 z
b000000000000 {
1|
#55
0|
#56
0A
b00001 D
b01011 E
b00000000000000000000000000000001 G
b00000000000101011000010110010011 H
b00000000000000000000000000010000 I
b00000000000000000000000000001000 J
b00000000000000000000000000000001 L
b00000000000000000000000000001000 N
b00000000000000000000000010010110 O
b00000000000000000000000011001111 Z
b00000000000000000000000000010100 p
b00000000000000000000000000010100 q
b00000000000000000000000000010010 r
b00000000000000000000000000000010 s
b000 t
b0010011 u
b00000000000000000000000000000001 v
b00010101 x
b10000101 y
b10010011 z
b000000000001 {
1|
b00000000000000000000000011001111 ~
#57
0|
#58
0?
1@
1B
b00110 D
b11001 E
b11111111111111111111111111111100 G
b11111110011001011001110011100011 H
b00000000000000000000000000010100 I
b00000000000000000000000100000111 J
b00000000000000000000000000001000 K
b00000000000000000000000011111111 L
b00000000000000000000000011111111 M
b00000000000000000000000100000111 N
b00000000000000000000000011001111 O
b00000000000000000000000000001000 [
b00000000000000000000000000011000 p
b00000000000000000000000000001100 q
b00000000000000000000000000001100 r
b11111111111111111111111111111000 s
b001 t
b1100011 u
b00000000000000000000000000000010 v
b11111110 w
b01100101 x
b10011100 y
b11100011 z
b111111111100 {
1|
#59
0|
#60
1?
0@
1A
0B
b00000 D
b01010 E
b00000000000000000000000000000000 G
b00000000000001011010010100000011 H
b00000000000000000000000000001100 I
b00000000000000000000000000001000 J
b00000000000000000000000000000000 L
b00000000000000000000000000000000 M
b00000000000000000000000010010110 N
b00000000000000000000000010010110 O
b00000000000000000000000000010000 p
b00000000000000000000000000010000 q
b00000000000000000000000000000000 s
b010 t
b0000011 u
b00000000000000000000000000000011 v
b00000000 w
b00000101 x
b10100101 y
b00000011 z
b000000000000 {
1|
#61
0|
#62
0A
b00001 D
b01011 E
b00000000000000000000000000000001 G
b00000000000101011000010110010011 H
b00000000000000000000000000010000 I
b00000000000000000000000000001001 J
b00000000000000000000000000000001 L
b00000000000000000000000000001001 N
b00000000000000000000000001001111 O
b00000000000000000000000010010110 Z
b00000000000000000000000000010100 p
b00000000000000000000000000010100 q
b00000000000000000000000000010010 r
b00000000000000000000000000000010 s
b000 t
b0010011 u
b00000000000000000000000000000001 v
b00010101 x
b10000101 y
b10010011 z
b000000000001 {
1|
b00000000000000000000000010010110 ~
#63
0|
#64
0?
1@
1B
b00110 D
b11001 E
b11111111111111111111111111111100 G
b11111110011001011001110011100011 H
b00000000000000000000000000010100 I
b00000000000000000000000100001000 J
b00000000000000000000000000001001 K
b00000000000000000000000011111111 L
b00000000000000000000000011111111 M
b00000000000000000000000100001000 N
b00000000000000000000000011110011 O
b00000000000000000000000000001001 [
b00000000000000000000000000011000 p
b00000000000000000000000000001100 q
b00000000000000000000000000001100 r
b11111111111111111111111111111000 s
b001 t
b1100011 u
b00000000000000000000000000000010 v
b11111110 w
b01100101 x
b10011100 y
b11100011 z
b111111111100 {
1|
#65
0|
#66
1?
0@
1A
0B
b00000 D
b01010 E
b00000000000000000000000000000000 G
b00000000000001011010010100000011 H
b00000000000000000000000000001100 I
b00000000000000000000000000001001 J
b00000000000000000000000000000000 L
b00000000000000000000000000000000 M
b00000000000000000000000001001111 N
b00000000000000000000000001001111 O
b00000000000000000000000000010000 p
b00000000000000000000000000010000 q
b00000000000000000000000000000000 s
b010 t
b0000011 u
b00000000000000000000000000000011 v
b00000000 w
b00000101 x
b10100101 y
b00000011 z
b000000000000 {
1|
#67
0|
#68
0A
b00001 D
b01011 E
b00000000000000000000000000000001 G
b00000000000101011000010110010011 H
b00000000000000000000000000010000 I
b00000000000000000000000000001010 J
b00000000000000000000000000000001 L
b00000000000000000000000000001010 N
b00000000000000000000000000000000 O
b00000000000000000000000001001111 Z
b00000000000000000000000000010100 p
b00000000000000000000000000010100 q
b00000000000000000000000000010010 r
b00000000000000000000000000000010 s
b000 t
b0010011 u
b00000000000000000000000000000001 v
b00010101 x
b10000101 y
b10010011 z
b000000000001 {
1|
b00000000000000000000000001001111 ~
#69
0|
#70
0?
1@
1B
b00110 D
b11001 E
b11111111111111111111111111111100 G
b11111110011001011001110011100011 H
b00000000000000000000000000010100 I
b00000000000000000000000100001001 J
b00000000000000000000000000001010 K
b00000000000000000000000011111111 L
b00000000000000000000000011111111 M
b00000000000000000000000100001001 N
b00000000000000000000000100000000 O
b00000000000000000000000000001010 [
b00000000000000000000000000011000 p
b00000000000000000000000000001100 q
b00000000000000000000000000001100 r
b11111111111111111111111111111000 s
b001 t
b1100011 u
b00000000000000000000000000000010 v
b11111110 w
b01100101 x
b10011100 y
b11100011 z
b111111111100 {
1|
#71
0|
#72
1?
0@
1A
0B
b00000 D
b01010 E
b00000000000000000000000000000000 G
b00000000000001011010010100000011 H
b00000000000000000000000000001100 I
b00000000000000000000000000001010 J
b00000000000000000000000000000000 L
b00000000000000000000000000000000 M
b00000000000000000000000000000000 N
b00000000000000000000000000000000 O
b00000000000000000000000000010000 p
b00000000000000000000000000010000 q
b00000000000000000000000000000000 s
b010 t
b0000011 u
b00000000000000000000000000000011 v
b00000000 w
b00000101 x
b10100101 y
b00000011 z
b000000000000 {
1|
#73
0|
