top.vcd
$version Generated by VerilatedVcd $end
$date Mon Nov 21 22:02:30 2022 $end
$timescale 1ps $end

 $scope module TOP $end
  $var wire 32 z a0 [31:0] $end
  $var wire  1 x clk $end
  $var wire  1 y rst $end
  $scope module top $end
   $var wire  1 { ALUctrl $end
   $var wire  1 ? ALUsrc $end
   $var wire  1 A EQ $end
   $var wire 32 E ImmOp [31:0] $end
   $var wire  1 ? ImmSrc $end
   $var wire 32 G PC [31:0] $end
   $var wire  1 @ PCsrc $end
   $var wire  1 ? RegWrite $end
   $var wire 32 z a0 [31:0] $end
   $var wire  1 x clk $end
   $var wire 32 F instr [31:0] $end
   $var wire  5 D rd [4:0] $end
   $var wire  5 B rs1 [4:0] $end
   $var wire  5 C rs2 [4:0] $end
   $var wire  1 y rst $end
   $scope module aluTop $end
    $var wire  1 { ALUctrl $end
    $var wire 32 I ALUop1 [31:0] $end
    $var wire 32 J ALUop2 [31:0] $end
    $var wire 32 H ALUout [31:0] $end
    $var wire  1 ? ALUsrc $end
    $var wire 32 | DATA_WIDTH [31:0] $end
    $var wire  1 A EQ $end
    $var wire 32 E ImmOp [31:0] $end
    $var wire  1 ? RegWrite $end
    $var wire 32 z a0 [31:0] $end
    $var wire  1 x clk $end
    $var wire  5 D rd [4:0] $end
    $var wire 32 K regOp2 [31:0] $end
    $var wire  5 B rs1 [4:0] $end
    $var wire  5 C rs2 [4:0] $end
    $scope module ALU $end
     $var wire  3 } ALUctrl [2:0] $end
     $var wire 32 I ALUop1 [31:0] $end
     $var wire 32 J ALUop2 [31:0] $end
     $var wire 32 | DATA_WIDTH [31:0] $end
     $var wire  1 A EQ $end
     $var wire 32 H SUM [31:0] $end
    $upscope $end
    $scope module ALUMux $end
     $var wire 32 J ALUop2 [31:0] $end
     $var wire  1 ? ALUsrc $end
     $var wire 32 | DATA_WIDTH [31:0] $end
     $var wire 32 E ImmOp [31:0] $end
     $var wire 32 K regOp2 [31:0] $end
    $upscope $end
    $scope module RegFile $end
     $var wire 32 ~ ADDRESS_WIDTH [31:0] $end
     $var wire 32 | DATA_WIDTH [31:0] $end
     $var wire 32 I RD1 [31:0] $end
     $var wire 32 K RD2 [31:0] $end
     $var wire 32 H WD3 [31:0] $end
     $var wire  1 ? WE3 $end
     $var wire 32 z a0 [31:0] $end
     $var wire  1 x clk $end
     $var wire  5 D rd [4:0] $end
     $var wire 32 L reg_array[0] [31:0] $end
     $var wire 32 V reg_array[10] [31:0] $end
     $var wire 32 W reg_array[11] [31:0] $end
     $var wire 32 X reg_array[12] [31:0] $end
     $var wire 32 Y reg_array[13] [31:0] $end
     $var wire 32 Z reg_array[14] [31:0] $end
     $var wire 32 [ reg_array[15] [31:0] $end
     $var wire 32 \ reg_array[16] [31:0] $end
     $var wire 32 ] reg_array[17] [31:0] $end
     $var wire 32 ^ reg_array[18] [31:0] $end
     $var wire 32 _ reg_array[19] [31:0] $end
     $var wire 32 M reg_array[1] [31:0] $end
     $var wire 32 ` reg_array[20] [31:0] $end
     $var wire 32 a reg_array[21] [31:0] $end
     $var wire 32 b reg_array[22] [31:0] $end
     $var wire 32 c reg_array[23] [31:0] $end
     $var wire 32 d reg_array[24] [31:0] $end
     $var wire 32 e reg_array[25] [31:0] $end
     $var wire 32 f reg_array[26] [31:0] $end
     $var wire 32 g reg_array[27] [31:0] $end
     $var wire 32 h reg_array[28] [31:0] $end
     $var wire 32 i reg_array[29] [31:0] $end
     $var wire 32 N reg_array[2] [31:0] $end
     $var wire 32 j reg_array[30] [31:0] $end
     $var wire 32 k reg_array[31] [31:0] $end
     $var wire 32 O reg_array[3] [31:0] $end
     $var wire 32 P reg_array[4] [31:0] $end
     $var wire 32 Q reg_array[5] [31:0] $end
     $var wire 32 R reg_array[6] [31:0] $end
     $var wire 32 S reg_array[7] [31:0] $end
     $var wire 32 T reg_array[8] [31:0] $end
     $var wire 32 U reg_array[9] [31:0] $end
     $var wire  5 B rs1 [4:0] $end
     $var wire  5 C rs2 [4:0] $end
    $upscope $end
   $upscope $end
   $scope module top_PC $end
    $var wire 32 | ADDRESS_WIDTH [31:0] $end
    $var wire 32 E ImmOp [31:0] $end
    $var wire 32 G PC [31:0] $end
    $var wire  1 @ PCsrc $end
    $var wire 32 n branch_PC [31:0] $end
    $var wire  1 x clk $end
    $var wire 32 l inc_PC [31:0] $end
    $var wire 32 m next_PC [31:0] $end
    $var wire  1 y rst $end
    $scope module PC_Reg $end
     $var wire 32 | DATA_LENGTH [31:0] $end
     $var wire 32 G PC [31:0] $end
     $var wire  1 x clk $end
     $var wire 32 m next_PC [31:0] $end
     $var wire  1 y rst $end
    $upscope $end
    $scope module add_inc $end
     $var wire 32 | DATA_LENGTH [31:0] $end
     $var wire 32 !! N [31:0] $end
     $var wire 32 G in [31:0] $end
     $var wire 32 l out [31:0] $end
    $upscope $end
    $scope module add_op $end
     $var wire 32 | DATA_LENGTH [31:0] $end
     $var wire 32 o N [31:0] $end
     $var wire 32 G in [31:0] $end
     $var wire 32 n out [31:0] $end
    $upscope $end
    $scope module mux $end
     $var wire 32 | WIDTH [31:0] $end
     $var wire 32 l d_0 [31:0] $end
     $var wire 32 n d_1 [31:0] $end
     $var wire 32 m dout [31:0] $end
     $var wire  1 @ s $end
    $upscope $end
   $upscope $end
   $scope module top_cme $end
    $var wire  1 { ALUctrl $end
    $var wire  1 ? ALUsrc $end
    $var wire  1 A EQ $end
    $var wire 32 E ImmOp [31:0] $end
    $var wire  1 ? ImmSrc $end
    $var wire 32 G PC [31:0] $end
    $var wire  1 @ PCsrc $end
    $var wire  1 ? RegWrite $end
    $var wire 32 | WIDTH [31:0] $end
    $var wire 32 F instr [31:0] $end
    $scope module ControlUnit $end
     $var wire  1 { ALUctrl $end
     $var wire  1 ? ALUsrc $end
     $var wire  1 A EQ $end
     $var wire  1 ? ImmSrc $end
     $var wire  1 @ PCsrc $end
     $var wire  1 ? RegWrite $end
     $var wire  3 p funct3 [14:12] $end
     $var wire 32 r instr [31:0] $end
     $var wire  7 q opcode [6:0] $end
    $upscope $end
    $scope module InstructionMemory $end
     $var wire 32 G A [31:0] $end
     $var wire 32 | ADDRESS_WIDTH [31:0] $end
     $var wire 32 "! DATA_WIDTH [31:0] $end
     $var wire 32 | INSTRUCTION_WIDTH [31:0] $end
     $var wire 32 F RD [31:0] $end
     $var wire  8 s byte1 [7:0] $end
     $var wire  8 t byte2 [7:0] $end
     $var wire  8 u byte3 [7:0] $end
     $var wire  8 v byte4 [7:0] $end
     $var wire  8 # rom_array[0] [7:0] $end
     $var wire  8 - rom_array[10] [7:0] $end
     $var wire  8 . rom_array[11] [7:0] $end
     $var wire  8 / rom_array[12] [7:0] $end
     $var wire  8 0 rom_array[13] [7:0] $end
     $var wire  8 1 rom_array[14] [7:0] $end
     $var wire  8 2 rom_array[15] [7:0] $end
     $var wire  8 3 rom_array[16] [7:0] $end
     $var wire  8 4 rom_array[17] [7:0] $end
     $var wire  8 5 rom_array[18] [7:0] $end
     $var wire  8 6 rom_array[19] [7:0] $end
     $var wire  8 $ rom_array[1] [7:0] $end
     $var wire  8 7 rom_array[20] [7:0] $end
     $var wire  8 8 rom_array[21] [7:0] $end
     $var wire  8 9 rom_array[22] [7:0] $end
     $var wire  8 : rom_array[23] [7:0] $end
     $var wire  8 ; rom_array[24] [7:0] $end
     $var wire  8 < rom_array[25] [7:0] $end
     $var wire  8 = rom_array[26] [7:0] $end
     $var wire  8 > rom_array[27] [7:0] $end
     $var wire  8 % rom_array[2] [7:0] $end
     $var wire  8 & rom_array[3] [7:0] $end
     $var wire  8 ' rom_array[4] [7:0] $end
     $var wire  8 ( rom_array[5] [7:0] $end
     $var wire  8 ) rom_array[6] [7:0] $end
     $var wire  8 * rom_array[7] [7:0] $end
     $var wire  8 + rom_array[8] [7:0] $end
     $var wire  8 , rom_array[9] [7:0] $end
    $upscope $end
    $scope module SignExtend $end
     $var wire 32 E ImmOp [31:0] $end
     $var wire  1 ? ImmSrc $end
     $var wire 32 | data_width [31:0] $end
     $var wire 12 w imm [11:0] $end
     $var wire 32 #! imm_width [31:0] $end
     $var wire 32 F instruction [31:0] $end
    $upscope $end
   $upscope $end
  $upscope $end
 $upscope $end
$enddefinitions $end


#0
b00000000 #
b00000000 $
b00000000 %
b00000000 &
b00000000 '
b00000000 (
b00000000 )
b00000000 *
b00000000 +
b00000000 ,
b00000000 -
b00000000 .
b00000000 /
b00000000 0
b00000000 1
b00000000 2
b00000000 3
b00000000 4
b00000000 5
b00000000 6
b00000000 7
b00000000 8
b00000000 9
b00000000 :
b00000000 ;
b00000000 <
b00000000 =
b00000000 >
0?
0@
1A
b00000 B
b00000 C
b00000 D
b00000000000000000000000000000000 E
b00000000000000000000000000000000 F
b00000000000000000000000000000000 G
b00000000000000000000000000000000 H
b00000000000000000000000000000000 I
b00000000000000000000000000000000 J
b00000000000000000000000000000000 K
b00000000000000000000000000000000 L
b00000000000000000000000000000000 M
b00000000000000000000000000000000 N
b00000000000000000000000000000000 O
b00000000000000000000000000000000 P
b00000000000000000000000000000000 Q
b00000000000000000000000000000000 R
b00000000000000000000000000000000 S
b00000000000000000000000000000000 T
b00000000000000000000000000000000 U
b00000000000000000000000000000000 V
b00000000000000000000000000000000 W
b00000000000000000000000000000000 X
b00000000000000000000000000000000 Y
b00000000000000000000000000000000 Z
b00000000000000000000000000000000 [
b00000000000000000000000000000000 \
b00000000000000000000000000000000 ]
b00000000000000000000000000000000 ^
b00000000000000000000000000000000 _
b00000000000000000000000000000000 `
b00000000000000000000000000000000 a
b00000000000000000000000000000000 b
b00000000000000000000000000000000 c
b00000000000000000000000000000000 d
b00000000000000000000000000000000 e
b00000000000000000000000000000000 f
b00000000000000000000000000000000 g
b00000000000000000000000000000000 h
b00000000000000000000000000000000 i
b00000000000000000000000000000000 j
b00000000000000000000000000000000 k
b00000000000000000000000000000100 l
b00000000000000000000000000000100 m
b00000000000000000000000000000000 n
b00000000000000000000000000000000 o
b000 p
b0000000 q
b00000000000000000000000000000000 r
b00000000 s
b00000000 t
b00000000 u
b00000000 v
b000000000000 w
1x
1y
b00000000000000000000000000000000 z
0{
b00000000000000000000000000100000 |
b000 }
b00000000000000000000000000000101 ~
b00000000000000000000000000000100 !!
b00000000000000000000000000001000 "!
b00000000000000000000000000001100 #!
#1
b00001111 #
b11110000 $
b00000011 %
b00010011 &
b00000101 )
b00010011 *
b00000101 -
b10010011 .
b00000101 0
b10000101 1
b00010011 2
b00010101 4
b10000101 5
b10010011 6
b11111110 7
b01100101 8
b10011100 9
b11100011 :
b11111110 ;
b00000011 <
b00011000 =
b11100011 >
1?
0A
b11111 C
b00110 D
b00000000000000000000000011111111 E
b00001111111100000000001100010011 F
b00000000000000000000000011111111 H
b00000000000000000000000011111111 J
b00000000000000000000000111111110 n
b00000000000000000000000111111110 o
b0010011 q
b00000000000000000000000000000001 r
b00001111 s
b11110000 t
b00000011 u
b00010011 v
b000011111111 w
0x
#2
b00000000000000000000000011111111 R
1x
#3
0x
#4
1x
#5
0x
#6
1x
0y
#7
0x
#8
1A
b00000 C
b01010 D
b00000000000000000000000000000000 E
b00000000000000000000010100010011 F
b00000000000000000000000000000100 G
b00000000000000000000000000000000 H
b00000000000000000000000000000000 J
b00000000000000000000000000001000 l
b00000000000000000000000000001000 m
b00000000000000000000000000000100 n
b00000000000000000000000000000000 o
b00000000 s
b00000000 t
b00000101 u
b000000000000 w
1x
#9
0x
#10
b01011 D
b00000000000000000000010110010011 F
b00000000000000000000000000001000 G
b00000000000000000000000000001100 l
b00000000000000000000000000001100 m
b00000000000000000000000000001000 n
b10010011 v
1x
#11
0x
#12
b01011 B
b01010 D
b00000000000001011000010100010011 F
b00000000000000000000000000001100 G
b00000000000000000000000000010000 l
b00000000000000000000000000010000 m
b00000000000000000000000000001100 n
b00000101 t
b10000101 u
b00010011 v
1x
#13
0x
#14
0A
b00001 C
b01011 D
b00000000000000000000000000000001 E
b00000000000101011000010110010011 F
b00000000000000000000000000010000 G
b00000000000000000000000000000001 H
b00000000000000000000000000000001 J
b00000000000000000000000000010100 l
b00000000000000000000000000010100 m
b00000000000000000000000000010010 n
b00000000000000000000000000000010 o
b00010101 t
b10010011 v
b000000000001 w
1x
#15
0x
#16
0?
1@
b00110 C
b11001 D
b11111111111111111111111111111100 E
b11111110011001011001110011100011 F
b00000000000000000000000000010100 G
b00000000000000000000000100000000 H
b00000000000000000000000000000001 I
b00000000000000000000000011111111 J
b00000000000000000000000011111111 K
b00000000000000000000000000000001 W
b00000000000000000000000000011000 l
b00000000000000000000000000001100 m
b00000000000000000000000000001100 n
b11111111111111111111111111111000 o
b001 p
b1100011 q
b00000000000000000000000000000010 r
b11111110 s
b01100101 t
b10011100 u
b11100011 v
b111111111100 w
1x
#17
0x
#18
1?
0@
b00000 C
b01010 D
b00000000000000000000000000000000 E
b00000000000001011000010100010011 F
b00000000000000000000000000001100 G
b00000000000000000000000000000001 H
b00000000000000000000000000000000 J
b00000000000000000000000000000000 K
b00000000000000000000000000010000 l
b00000000000000000000000000010000 m
b00000000000000000000000000000000 o
b000 p
b0010011 q
b00000000000000000000000000000001 r
b00000000 s
b00000101 t
b10000101 u
b00010011 v
b000000000000 w
1x
#19
0x
#20
1A
b00001 C
b01011 D
b00000000000000000000000000000001 E
b00000000000101011000010110010011 F
b00000000000000000000000000010000 G
b00000000000000000000000000000010 H
b00000000000000000000000000000001 J
b00000000000000000000000000000001 V
b00000000000000000000000000010100 l
b00000000000000000000000000010100 m
b00000000000000000000000000010010 n
b00000000000000000000000000000010 o
b00010101 t
b10010011 v
b000000000001 w
1x
b00000000000000000000000000000001 z
#21
0x
#22
0?
1@
0A
b00110 C
b11001 D
b11111111111111111111111111111100 E
b11111110011001011001110011100011 F
b00000000000000000000000000010100 G
b00000000000000000000000100000001 H
b00000000000000000000000000000010 I
b00000000000000000000000011111111 J
b00000000000000000000000011111111 K
b00000000000000000000000000000010 W
b00000000000000000000000000011000 l
b00000000000000000000000000001100 m
b00000000000000000000000000001100 n
b11111111111111111111111111111000 o
b001 p
b1100011 q
b00000000000000000000000000000010 r
b11111110 s
b01100101 t
b10011100 u
b11100011 v
b111111111100 w
1x
#23
0x
#24
1?
0@
b00000 C
b01010 D
b00000000000000000000000000000000 E
b00000000000001011000010100010011 F
b00000000000000000000000000001100 G
b00000000000000000000000000000010 H
b00000000000000000000000000000000 J
b00000000000000000000000000000000 K
b00000000000000000000000000010000 l
b00000000000000000000000000010000 m
b00000000000000000000000000000000 o
b000 p
b0010011 q
b00000000000000000000000000000001 r
b00000000 s
b00000101 t
b10000101 u
b00010011 v
b000000000000 w
1x
#25
0x
#26
b00001 C
b01011 D
b00000000000000000000000000000001 E
b00000000000101011000010110010011 F
b00000000000000000000000000010000 G
b00000000000000000000000000000011 H
b00000000000000000000000000000001 J
b00000000000000000000000000000010 V
b00000000000000000000000000010100 l
b00000000000000000000000000010100 m
b00000000000000000000000000010010 n
b00000000000000000000000000000010 o
b00010101 t
b10010011 v
b000000000001 w
1x
b00000000000000000000000000000010 z
#27
0x
#28
0?
1@
b00110 C
b11001 D
b11111111111111111111111111111100 E
b11111110011001011001110011100011 F
b00000000000000000000000000010100 G
b00000000000000000000000100000010 H
b00000000000000000000000000000011 I
b00000000000000000000000011111111 J
b00000000000000000000000011111111 K
b00000000000000000000000000000011 W
b00000000000000000000000000011000 l
b00000000000000000000000000001100 m
b00000000000000000000000000001100 n
b11111111111111111111111111111000 o
b001 p
b1100011 q
b00000000000000000000000000000010 r
b11111110 s
b01100101 t
b10011100 u
b11100011 v
b111111111100 w
1x
#29
0x
#30
1?
0@
b00000 C
b01010 D
b00000000000000000000000000000000 E
b00000000000001011000010100010011 F
b00000000000000000000000000001100 G
b00000000000000000000000000000011 H
b00000000000000000000000000000000 J
b00000000000000000000000000000000 K
b00000000000000000000000000010000 l
b00000000000000000000000000010000 m
b00000000000000000000000000000000 o
b000 p
b0010011 q
b00000000000000000000000000000001 r
b00000000 s
b00000101 t
b10000101 u
b00010011 v
b000000000000 w
1x
#31
0x
#32
b00001 C
b01011 D
b00000000000000000000000000000001 E
b00000000000101011000010110010011 F
b00000000000000000000000000010000 G
b00000000000000000000000000000100 H
b00000000000000000000000000000001 J
b00000000000000000000000000000011 V
b00000000000000000000000000010100 l
b00000000000000000000000000010100 m
b00000000000000000000000000010010 n
b00000000000000000000000000000010 o
b00010101 t
b10010011 v
b000000000001 w
1x
b00000000000000000000000000000011 z
#33
0x
#34
0?
1@
b00110 C
b11001 D
b11111111111111111111111111111100 E
b11111110011001011001110011100011 F
b00000000000000000000000000010100 G
b00000000000000000000000100000011 H
b00000000000000000000000000000100 I
b00000000000000000000000011111111 J
b00000000000000000000000011111111 K
b00000000000000000000000000000100 W
b00000000000000000000000000011000 l
b00000000000000000000000000001100 m
b00000000000000000000000000001100 n
b11111111111111111111111111111000 o
b001 p
b1100011 q
b00000000000000000000000000000010 r
b11111110 s
b01100101 t
b10011100 u
b11100011 v
b111111111100 w
1x
#35
0x
#36
1?
0@
b00000 C
b01010 D
b00000000000000000000000000000000 E
b00000000000001011000010100010011 F
b00000000000000000000000000001100 G
b00000000000000000000000000000100 H
b00000000000000000000000000000000 J
b00000000000000000000000000000000 K
b00000000000000000000000000010000 l
b00000000000000000000000000010000 m
b00000000000000000000000000000000 o
b000 p
b0010011 q
b00000000000000000000000000000001 r
b00000000 s
b00000101 t
b10000101 u
b00010011 v
b000000000000 w
1x
#37
0x
#38
b00001 C
b01011 D
b00000000000000000000000000000001 E
b00000000000101011000010110010011 F
b00000000000000000000000000010000 G
b00000000000000000000000000000101 H
b00000000000000000000000000000001 J
b00000000000000000000000000000100 V
b00000000000000000000000000010100 l
b00000000000000000000000000010100 m
b00000000000000000000000000010010 n
b00000000000000000000000000000010 o
b00010101 t
b10010011 v
b000000000001 w
1x
b00000000000000000000000000000100 z
#39
0x
#40
0?
1@
b00110 C
b11001 D
b11111111111111111111111111111100 E
b11111110011001011001110011100011 F
b00000000000000000000000000010100 G
b00000000000000000000000100000100 H
b00000000000000000000000000000101 I
b00000000000000000000000011111111 J
b00000000000000000000000011111111 K
b00000000000000000000000000000101 W
b00000000000000000000000000011000 l
b00000000000000000000000000001100 m
b00000000000000000000000000001100 n
b11111111111111111111111111111000 o
b001 p
b1100011 q
b00000000000000000000000000000010 r
b11111110 s
b01100101 t
b10011100 u
b11100011 v
b111111111100 w
1x
#41
0x
#42
1?
0@
b00000 C
b01010 D
b00000000000000000000000000000000 E
b00000000000001011000010100010011 F
b00000000000000000000000000001100 G
b00000000000000000000000000000101 H
b00000000000000000000000000000000 J
b00000000000000000000000000000000 K
b00000000000000000000000000010000 l
b00000000000000000000000000010000 m
b00000000000000000000000000000000 o
b000 p
b0010011 q
b00000000000000000000000000000001 r
b00000000 s
b00000101 t
b10000101 u
b00010011 v
b000000000000 w
1x
#43
0x
#44
b00001 C
b01011 D
b00000000000000000000000000000001 E
b00000000000101011000010110010011 F
b00000000000000000000000000010000 G
b00000000000000000000000000000110 H
b00000000000000000000000000000001 J
b00000000000000000000000000000101 V
b00000000000000000000000000010100 l
b00000000000000000000000000010100 m
b00000000000000000000000000010010 n
b00000000000000000000000000000010 o
b00010101 t
b10010011 v
b000000000001 w
1x
b00000000000000000000000000000101 z
#45
0x
#46
0?
1@
b00110 C
b11001 D
b11111111111111111111111111111100 E
b11111110011001011001110011100011 F
b00000000000000000000000000010100 G
b00000000000000000000000100000101 H
b00000000000000000000000000000110 I
b00000000000000000000000011111111 J
b00000000000000000000000011111111 K
b00000000000000000000000000000110 W
b00000000000000000000000000011000 l
b00000000000000000000000000001100 m
b00000000000000000000000000001100 n
b11111111111111111111111111111000 o
b001 p
b1100011 q
b00000000000000000000000000000010 r
b11111110 s
b01100101 t
b10011100 u
b11100011 v
b111111111100 w
1x
#47
0x
#48
1?
0@
b00000 C
b01010 D
b00000000000000000000000000000000 E
b00000000000001011000010100010011 F
b00000000000000000000000000001100 G
b00000000000000000000000000000110 H
b00000000000000000000000000000000 J
b00000000000000000000000000000000 K
b00000000000000000000000000010000 l
b00000000000000000000000000010000 m
b00000000000000000000000000000000 o
b000 p
b0010011 q
b00000000000000000000000000000001 r
b00000000 s
b00000101 t
b10000101 u
b00010011 v
b000000000000 w
1x
#49
0x
#50
b00001 C
b01011 D
b00000000000000000000000000000001 E
b00000000000101011000010110010011 F
b00000000000000000000000000010000 G
b00000000000000000000000000000111 H
b00000000000000000000000000000001 J
b00000000000000000000000000000110 V
b00000000000000000000000000010100 l
b00000000000000000000000000010100 m
b00000000000000000000000000010010 n
b00000000000000000000000000000010 o
b00010101 t
b10010011 v
b000000000001 w
1x
b00000000000000000000000000000110 z
#51
0x
#52
0?
1@
b00110 C
b11001 D
b11111111111111111111111111111100 E
b11111110011001011001110011100011 F
b00000000000000000000000000010100 G
b00000000000000000000000100000110 H
b00000000000000000000000000000111 I
b00000000000000000000000011111111 J
b00000000000000000000000011111111 K
b00000000000000000000000000000111 W
b00000000000000000000000000011000 l
b00000000000000000000000000001100 m
b00000000000000000000000000001100 n
b11111111111111111111111111111000 o
b001 p
b1100011 q
b00000000000000000000000000000010 r
b11111110 s
b01100101 t
b10011100 u
b11100011 v
b111111111100 w
1x
#53
0x
#54
1?
0@
b00000 C
b01010 D
b00000000000000000000000000000000 E
b00000000000001011000010100010011 F
b00000000000000000000000000001100 G
b00000000000000000000000000000111 H
b00000000000000000000000000000000 J
b00000000000000000000000000000000 K
b00000000000000000000000000010000 l
b00000000000000000000000000010000 m
b00000000000000000000000000000000 o
b000 p
b0010011 q
b00000000000000000000000000000001 r
b00000000 s
b00000101 t
b10000101 u
b00010011 v
b000000000000 w
1x
#55
0x
#56
b00001 C
b01011 D
b00000000000000000000000000000001 E
b00000000000101011000010110010011 F
b00000000000000000000000000010000 G
b00000000000000000000000000001000 H
b00000000000000000000000000000001 J
b00000000000000000000000000000111 V
b00000000000000000000000000010100 l
b00000000000000000000000000010100 m
b00000000000000000000000000010010 n
b00000000000000000000000000000010 o
b00010101 t
b10010011 v
b000000000001 w
1x
b00000000000000000000000000000111 z
#57
0x
#58
0?
1@
b00110 C
b11001 D
b11111111111111111111111111111100 E
b11111110011001011001110011100011 F
b00000000000000000000000000010100 G
b00000000000000000000000100000111 H
b00000000000000000000000000001000 I
b00000000000000000000000011111111 J
b00000000000000000000000011111111 K
b00000000000000000000000000001000 W
b00000000000000000000000000011000 l
b00000000000000000000000000001100 m
b00000000000000000000000000001100 n
b11111111111111111111111111111000 o
b001 p
b1100011 q
b00000000000000000000000000000010 r
b11111110 s
b01100101 t
b10011100 u
b11100011 v
b111111111100 w
1x
#59
0x
#60
1?
0@
b00000 C
b01010 D
b00000000000000000000000000000000 E
b00000000000001011000010100010011 F
b00000000000000000000000000001100 G
b00000000000000000000000000001000 H
b00000000000000000000000000000000 J
b00000000000000000000000000000000 K
b00000000000000000000000000010000 l
b00000000000000000000000000010000 m
b00000000000000000000000000000000 o
b000 p
b0010011 q
b00000000000000000000000000000001 r
b00000000 s
b00000101 t
b10000101 u
b00010011 v
b000000000000 w
1x
#61
0x
#62
b00001 C
b01011 D
b00000000000000000000000000000001 E
b00000000000101011000010110010011 F
b00000000000000000000000000010000 G
b00000000000000000000000000001001 H
b00000000000000000000000000000001 J
b00000000000000000000000000001000 V
b00000000000000000000000000010100 l
b00000000000000000000000000010100 m
b00000000000000000000000000010010 n
b00000000000000000000000000000010 o
b00010101 t
b10010011 v
b000000000001 w
1x
b00000000000000000000000000001000 z
#63
0x
#64
0?
1@
b00110 C
b11001 D
b11111111111111111111111111111100 E
b11111110011001011001110011100011 F
b00000000000000000000000000010100 G
b00000000000000000000000100001000 H
b00000000000000000000000000001001 I
b00000000000000000000000011111111 J
b00000000000000000000000011111111 K
b00000000000000000000000000001001 W
b00000000000000000000000000011000 l
b00000000000000000000000000001100 m
b00000000000000000000000000001100 n
b11111111111111111111111111111000 o
b001 p
b1100011 q
b00000000000000000000000000000010 r
b11111110 s
b01100101 t
b10011100 u
b11100011 v
b111111111100 w
1x
#65
0x
#66
1?
0@
b00000 C
b01010 D
b00000000000000000000000000000000 E
b00000000000001011000010100010011 F
b00000000000000000000000000001100 G
b00000000000000000000000000001001 H
b00000000000000000000000000000000 J
b00000000000000000000000000000000 K
b00000000000000000000000000010000 l
b00000000000000000000000000010000 m
b00000000000000000000000000000000 o
b000 p
b0010011 q
b00000000000000000000000000000001 r
b00000000 s
b00000101 t
b10000101 u
b00010011 v
b000000000000 w
1x
#67
0x
#68
b00001 C
b01011 D
b00000000000000000000000000000001 E
b00000000000101011000010110010011 F
b00000000000000000000000000010000 G
b00000000000000000000000000001010 H
b00000000000000000000000000000001 J
b00000000000000000000000000001001 V
b00000000000000000000000000010100 l
b00000000000000000000000000010100 m
b00000000000000000000000000010010 n
b00000000000000000000000000000010 o
b00010101 t
b10010011 v
b000000000001 w
1x
b00000000000000000000000000001001 z
#69
0x
#70
0?
1@
b00110 C
b11001 D
b11111111111111111111111111111100 E
b11111110011001011001110011100011 F
b00000000000000000000000000010100 G
b00000000000000000000000100001001 H
b00000000000000000000000000001010 I
b00000000000000000000000011111111 J
b00000000000000000000000011111111 K
b00000000000000000000000000001010 W
b00000000000000000000000000011000 l
b00000000000000000000000000001100 m
b00000000000000000000000000001100 n
b11111111111111111111111111111000 o
b001 p
b1100011 q
b00000000000000000000000000000010 r
b11111110 s
b01100101 t
b10011100 u
b11100011 v
b111111111100 w
1x
#71
0x
#72
1?
0@
b00000 C
b01010 D
b00000000000000000000000000000000 E
b00000000000001011000010100010011 F
b00000000000000000000000000001100 G
b00000000000000000000000000001010 H
b00000000000000000000000000000000 J
b00000000000000000000000000000000 K
b00000000000000000000000000010000 l
b00000000000000000000000000010000 m
b00000000000000000000000000000000 o
b000 p
b0010011 q
b00000000000000000000000000000001 r
b00000000 s
b00000101 t
b10000101 u
b00010011 v
b000000000000 w
1x
#73
0x
#74
b00001 C
b01011 D
b00000000000000000000000000000001 E
b00000000000101011000010110010011 F
b00000000000000000000000000010000 G
b00000000000000000000000000001011 H
b00000000000000000000000000000001 J
b00000000000000000000000000001010 V
b00000000000000000000000000010100 l
b00000000000000000000000000010100 m
b00000000000000000000000000010010 n
b00000000000000000000000000000010 o
b00010101 t
b10010011 v
b000000000001 w
1x
b00000000000000000000000000001010 z
#75
0x
#76
0?
1@
b00110 C
b11001 D
b11111111111111111111111111111100 E
b11111110011001011001110011100011 F
b00000000000000000000000000010100 G
b00000000000000000000000100001010 H
b00000000000000000000000000001011 I
b00000000000000000000000011111111 J
b00000000000000000000000011111111 K
b00000000000000000000000000001011 W
b00000000000000000000000000011000 l
b00000000000000000000000000001100 m
b00000000000000000000000000001100 n
b11111111111111111111111111111000 o
b001 p
b1100011 q
b00000000000000000000000000000010 r
b11111110 s
b01100101 t
b10011100 u
b11100011 v
b111111111100 w
1x
#77
0x
#78
1?
0@
b00000 C
b01010 D
b00000000000000000000000000000000 E
b00000000000001011000010100010011 F
b00000000000000000000000000001100 G
b00000000000000000000000000001011 H
b00000000000000000000000000000000 J
b00000000000000000000000000000000 K
b00000000000000000000000000010000 l
b00000000000000000000000000010000 m
b00000000000000000000000000000000 o
b000 p
b0010011 q
b00000000000000000000000000000001 r
b00000000 s
b00000101 t
b10000101 u
b00010011 v
b000000000000 w
1x
#79
0x
#80
b00001 C
b01011 D
b00000000000000000000000000000001 E
b00000000000101011000010110010011 F
b00000000000000000000000000010000 G
b00000000000000000000000000001100 H
b00000000000000000000000000000001 J
b00000000000000000000000000001011 V
b00000000000000000000000000010100 l
b00000000000000000000000000010100 m
b00000000000000000000000000010010 n
b00000000000000000000000000000010 o
b00010101 t
b10010011 v
b000000000001 w
1x
b00000000000000000000000000001011 z
#81
0x
#82
0?
1@
b00110 C
b11001 D
b11111111111111111111111111111100 E
b11111110011001011001110011100011 F
b00000000000000000000000000010100 G
b00000000000000000000000100001011 H
b00000000000000000000000000001100 I
b00000000000000000000000011111111 J
b00000000000000000000000011111111 K
b00000000000000000000000000001100 W
b00000000000000000000000000011000 l
b00000000000000000000000000001100 m
b00000000000000000000000000001100 n
b11111111111111111111111111111000 o
b001 p
b1100011 q
b00000000000000000000000000000010 r
b11111110 s
b01100101 t
b10011100 u
b11100011 v
b111111111100 w
1x
#83
0x
#84
1?
0@
b00000 C
b01010 D
b00000000000000000000000000000000 E
b00000000000001011000010100010011 F
b00000000000000000000000000001100 G
b00000000000000000000000000001100 H
b00000000000000000000000000000000 J
b00000000000000000000000000000000 K
b00000000000000000000000000010000 l
b00000000000000000000000000010000 m
b00000000000000000000000000000000 o
b000 p
b0010011 q
b00000000000000000000000000000001 r
b00000000 s
b00000101 t
b10000101 u
b00010011 v
b000000000000 w
1x
#85
0x
#86
b00001 C
b01011 D
b00000000000000000000000000000001 E
b00000000000101011000010110010011 F
b00000000000000000000000000010000 G
b00000000000000000000000000001101 H
b00000000000000000000000000000001 J
b00000000000000000000000000001100 V
b00000000000000000000000000010100 l
b00000000000000000000000000010100 m
b00000000000000000000000000010010 n
b00000000000000000000000000000010 o
b00010101 t
b10010011 v
b000000000001 w
1x
b00000000000000000000000000001100 z
#87
0x
#88
0?
1@
b00110 C
b11001 D
b11111111111111111111111111111100 E
b11111110011001011001110011100011 F
b00000000000000000000000000010100 G
b00000000000000000000000100001100 H
b00000000000000000000000000001101 I
b00000000000000000000000011111111 J
b00000000000000000000000011111111 K
b00000000000000000000000000001101 W
b00000000000000000000000000011000 l
b00000000000000000000000000001100 m
b00000000000000000000000000001100 n
b11111111111111111111111111111000 o
b001 p
b1100011 q
b00000000000000000000000000000010 r
b11111110 s
b01100101 t
b10011100 u
b11100011 v
b111111111100 w
1x
#89
0x
